Place,Name,Division,Country,BodyweightKg,Squat1Kg,Squat2Kg,Squat3Kg,Best3SquatKg,Squat4Kg,Bench1Kg,Bench2Kg,Bench3Kg,Best3BenchKg,Bench4Kg,Deadlift1Kg,Deadlift2Kg,Deadlift3Kg,Best3DeadliftKg,Deadlift4Kg,TotalKg,WeightClassKg,Sex,CyrillicName,Equipment,Event
1,Dominika Heráková,T1,Czechia,46.5,55,65,-70,65,,32.5,-37.5,-37.5,32.5,,60,65,70,70,75,167.5,48,F,,Wraps,SBD
1,Ekaterina Dedova,T3,Russia,51,60,65,72.5,72.5,,42.5,47.5,-50,47.5,,100,105,110,110,,230,52,F,Екатерина Дедова,Wraps,SBD
1,Dana Brusová,J,Slovakia,49,100,-107.5,110,110,,65,70,72.5,72.5,,125,132.5,137.5,137.5,-140,320,52,F,,Wraps,SBD
1,Veronika Zamecnikova,O,Czechia,52,70,80,-90,80,,-35,35,-40,35,,90,-105,-105,90,,205,52,F,,Wraps,SBD
1,Rachel Hobbs,J,UK,54.3,110,-115,-115,110,,50,-55,-55,50,,110,117.5,122.5,122.5,,282.5,56,F,,Wraps,SBD
1,Martine George,O,UK,55.3,95,100,-105,100,,50,-55,-55,50,,120,125,132.5,132.5,,282.5,56,F,,Wraps,SBD
1,Natacha Herbepin,M1,France,55.3,120,130,-135,130,,60,-70,-70,60,,140,150,-160,150,,340,56,F,,Wraps,SBD
1,Csilla Sipos,T2,Hungary,57.8,85,95,105,105,,37.5,40,-42.5,40,,100,110,-120.5,110,,255,60,F,,Wraps,SBD
1,Alison Booker,O,UK,59.7,90,105,-110,105,,77.5,85,87.5,87.5,,120,130,-135,130,,322.5,60,F,,Wraps,SBD
2,Joanna Halliday,O,UK,59.7,95,100,105,105,-110,57.5,62.5,65,65,,125,135,140,140,-150.5,310,60,F,,Wraps,SBD
3,Mojca Virant,O,Slovakia,58.9,105,-112.5,115,115,-120,50,55,-57.5,55,,125,132.5,137.5,137.5,142.5,307.5,60,F,,Wraps,SBD
1,Blanka Hronová,M1,Czechia,57.1,35,45,,45,,30,32.5,-35,32.5,,55,65,70,70,,147.5,60,F,,Wraps,SBD
1,Elena Šimová,O,Slovakia,66,170,185,192.5,192.5,-195,85,92.5,95,95,,170,185,195,195,,482.5,67.5,F,,Wraps,SBD
2,Anna Sokolov,O,Israel,63.6,100,115,125,125,,45,47.5,50,50,,110,125,-135,125,,300,67.5,F,,Wraps,SBD
3,Hana Homolková,O,Czechia,64.6,-85,85,-90,85,,45,50,-55,50,,-80,80,,80,,215,67.5,F,,Wraps,SBD
1,Katalin Schindlerné Dr. Kiss,M1,Hungary,66.3,110,117.5,-125.5,117.5,,70,77.5,80,80,82.5,127.5,135,142.5,142.5,-145,340,67.5,F,,Wraps,SBD
1,Marlies Götze,J,Germany,69.4,-105,110,120,120,127.5,57.5,62.5,67.5,67.5,,120,140,-160,140,,327.5,75,F,,Wraps,SBD
1,Olga Dolinskaya,O,Russia,69,130,140,145,145,,72.5,-77.5,-77.5,72.5,,140,150,160,160,,377.5,75,F,Ольга Долинская,Wraps,SBD
2,Eva Vyhlídalová,O,Czechia,67.7,110,120,130,130,,67.5,-72.5,-72.5,67.5,,150,-165,-165,150,,347.5,75,F,,Wraps,SBD
3,Lina Piepenhagen,O,Germany,73.1,100,107.5,-120,107.5,,60,65,70,70,,117.5,125,132.5,132.5,,310,75,F,,Wraps,SBD
1,Olga Verbova,O,Russia,78.9,160,170,-177.5,170,,103,-108,-108,103,,177.5,186,190,190,,463,82.5,F,Ольга Вербова,Wraps,SBD
1,Angela McNamara,M1,Ireland,79.3,150,160,175,175,185,95,100,105,105,107.5,190,200,,200,,480,82.5,F,,Wraps,SBD
1,Tímea Szuromi,O,Hungary,85.1,170,-182.5,-187.5,170,,95,105,107.5,107.5,,170,182.5,187.5,187.5,,465,90,F,,Wraps,SBD
2,Andreja Valant,O,Slovakia,86.4,135,142,147.5,147.5,150,50,55,-57.5,55,,140,147.5,155,155,,357.5,90,F,,Wraps,SBD
1,Romana Ryzakova,T3,Czechia,92.9,110,120,-130,120,,70,-75,-75,70,,-115,120,,120,,310,90+,F,,Wraps,SBD
1,Milan Troksiar,T3,Slovakia,55.3,100,112.5,117.5,117.5,122.5,65,70,72.5,72.5,,120,140,150,150,-157.5,340,56,M,,Wraps,SBD
1,Pavel Balážik,O,Slovakia,54.1,120,125.5,127.5,127.5,142.5,82.5,90.5,92.5,92.5,,145,155.5,157.5,157.5,-167.5,377.5,56,M,,Wraps,SBD
1,Aleksandr Romanichev,M3,Israel,55.9,130,145,155,155,,100,107.5,112.5,112.5,,150,162.5,170,170,,437.5,56,M,,Wraps,SBD
1,Jan Pianka,O,Czechia,58.5,135,145,150,150,,75,80,87.5,87.5,,170,182.5,,182.5,,420,60,M,,Wraps,SBD
1,Pavol Spodniak,M6,Slovakia,58.3,80,-85,-90,80,,50,-60,-62.5,50,,120,130,137.5,137.5,,267.5,60,M,,Wraps,SBD
1,Intars Baumanis,T2,Latvia,66.1,200,210,-220,210,,-105,112.5,-117.5,112.5,,200,-207.5,207.5,207.5,,530,67.5,M,,Wraps,SBD
1,Peter Lehocký,T3,Slovakia,67.5,150,165,172.5,172.5,,100,110,113,113,,170,192.5,-200,192.5,,478,67.5,M,,Wraps,SBD
1,Aleksey Okunev,O,Russia,66.4,-190,190,210,210,,125,132.5,-137.5,132.5,,210,220,,220,,562.5,67.5,M,Алексей Окунев,Wraps,SBD
2,Jerome Latscha,O,France,66,150,-160,-160,150,,95,100,-105,100,,185,-202.5,-202.5,185,,435,67.5,M,,Wraps,SBD
3,Miroslav Andreáš,O,Czechia,66.2,120,140,-150,140,,85,95,-102.5,95,,140,150,-160,150,,385,67.5,M,,Wraps,SBD
1,Milan Mikulčík,M4,Slovakia,67.4,125,140,147.5,147.5,,85,95,100,100,,160,172.5,180,180,,427.5,67.5,M,,Wraps,SBD
1,Burkhard Steffen,M5,Germany,67.1,135,140,145,145,,90,95,100,100,,135,142.5,150,150,,395,67.5,M,,Wraps,SBD
1,Kristian Ozimý,T2,Slovakia,74.1,-150,150,170,170,,105,115,120,120,,180,200,,200,,490,75,M,,Wraps,SBD
1,Dean Piggott,T3,UK,74.9,165,175,185,185,,105,115,120,120,,195,212.5,222.5,222.5,,527.5,75,M,,Wraps,SBD
2,Lukáš Vašíček,T3,Czechia,68.3,-155,155,170,170,,105,110,115,115,,165,175,190,190,,475,75,M,,Wraps,SBD
1,David Kasarda,J,Slovakia,72.4,185,-195,-195,185,,100,112.5,117.5,117.5,,195,210,215,215,,517.5,75,M,,Wraps,SBD
2,Andrew Smith #2,J,UK,72.1,160,180,-190,180,,100,112.5,117.5,117.5,,195,210,-220,210,,507.5,75,M,,Wraps,SBD
3,Daniel Tkac,J,Slovakia,73.4,130,145,155,155,,105,-112.5,115,115,,170,180,-185,180,,450,75,M,,Wraps,SBD
1,Jeffrey Podszuweit,O,Germany,74.4,220,230,240,240,,167.5,176,181,181,183,225,250,261,261,,682,75,M,,Wraps,SBD
2,Peter Halaj,O,Slovakia,75,190,205,-220,205,,120,-130,-130,120,,-190,190,210,210,,535,75,M,,Wraps,SBD
3,Ivan Stanković,O,Serbia,74.9,-180,185,-207.5,185,,110,115,,115,,190,200,-215,200,,500,75,M,,Wraps,SBD
1,Roman Mandík,M2,Czechia,73.1,-150,150,155,155,,100,105,107.5,107.5,,170,182.5,192.5,192.5,,455,75,M,,Wraps,SBD
1,Adriano DaCosta,M3,France,72.9,180,200,,200,,117.5,122.5,,122.5,,160,180,210,210,,532.5,75,M,,Wraps,SBD
1,Josef Gabrhel,M4,Slovakia,74,130,-135,135,135,,100,102.5,105,105,,150,160,165,165,,405,75,M,,Wraps,SBD
1,Guylhem Feraud,M6,France,73.5,-110,110,120,120,,100,107.5,112.5,112.5,,160,170,-175,170,,402.5,75,M,,Wraps,SBD
1,Ulrich Mielich,M7,Germany,73.5,55,62.5,70,70,75,47.5,52.5,55,55,57.5,85,100,110,110,115,235,75,M,,Wraps,SBD
1,Bartolomej Veres,M8,Slovakia,75,-100,-100,100,100,,55,60,,60,,115,-125,,115,,275,75,M,,Wraps,SBD
1,Roman Dobeš,T2,Czechia,80.8,155,165,172.5,172.5,,105,110,,110,,165,177.5,185,185,,467.5,82.5,M,,Wraps,SBD
1,Mátyás Karkus,T3,Hungary,75.2,130,-140,,130,,55,60,-65,60,,150,165,-170,165,,355,82.5,M,,Wraps,SBD
1,Jozef Grega,J,Slovakia,80.7,280,300,320,320,,160,165,-170,165,,250,262.5,-270,262.5,,747.5,82.5,M,,Wraps,SBD
2,Bendix Piepenhagen,J,Germany,78.6,195,210,-222.5,210,,130,140,-145,140,,200,220,-240,220,,570,82.5,M,,Wraps,SBD
3,Lukas Vachata,J,Czechia,80,160,170,182.5,182.5,,90,100,-107.5,100,,220,235,242.5,242.5,,525,82.5,M,,Wraps,SBD
1,Dalibor Ilijić,O,Serbia,81.1,250,262.5,-270,262.5,,150,163,167.5,167.5,,240,250,-265,250,,680,82.5,M,,Wraps,SBD
2,Petr Horák,O,Czechia,81.8,240,-250,-252.5,240,,150,-155,-155,150,,255,272.5,-280,272.5,,662.5,82.5,M,,Wraps,SBD
3,Karol Janiček,O,Slovakia,80.8,220,230,-240,230,,125,135,142.5,142.5,,240,255,,255,,627.5,82.5,M,,Wraps,SBD
4,Lukáš Marvan,O,Czechia,81.7,160,170,-180,170,,115,120,-122.5,120,,200,215,-220,215,,505,82.5,M,,Wraps,SBD
1,Peter Lehocký,M1,Slovakia,76.4,195,215,230,230,,140,152.5,-160,152.5,,225,255,-265,255,,637.5,82.5,M,,Wraps,SBD
1,Peter Herák,M3,Slovakia,82.3,-200,-200,200,200,,107.5,115,-117.5,115,,200,220,232.5,232.5,,547.5,82.5,M,,Wraps,SBD
1,Tibor Zvada,M4,Slovakia,80.8,-70,130,140,140,,75,80,-85,80,,170,180,-190,180,,400,82.5,M,,Wraps,SBD
1,Zoltán Jurko,M7,Slovakia,81.6,110,117.5,122.5,122.5,,-65,65,-70,65,,120,135,142.5,142.5,,330,82.5,M,,Wraps,SBD
1,Vlastimil Šafařík,T1,Czechia,85.9,155,165,172.5,172.5,-180,100,105,110,110,-115,160,175,-182.5,175,,457.5,90,M,,Wraps,SBD
1,Milan Stanković,T3,Serbia,87.3,230,251,265,265,,125,135,,135,,285,302.5,311,311,-317.5,711,90,M,,Wraps,SBD
2,Milan Vysoký,T3,Slovakia,90,205,215,-227.5,215,,145,152.5,-160,152.5,,215,225,235,235,,602.5,90,M,,Wraps,SBD
3,Ladislav Škop,T3,Czechia,89.3,200,-215,-220,200,,115,-125,125,125,,200,215,-222.5,215,,540,90,M,,Wraps,SBD
1,Marek Janiš,J,Czechia,87.2,190,202.5,215,215,,117.5,125,-130,125,,230,240,252.5,252.5,,592.5,90,M,,Wraps,SBD
1,Chris Jenkins #7,O,UK,90,250,272.5,,272.5,,155,165,170,170,,250,275,290,290,,732.5,90,M,,Wraps,SBD
2,János Fazekas,O,Hungary,88.2,-225,240,-260,240,,180,-185,-185,180,,265,275,-297.5,275,,695,90,M,,Wraps,SBD
3,Erik Karvai,O,Slovakia,88.7,230,250,-260,250,,165,170,-172.5,170,,230,255,262.5,262.5,,682.5,90,M,,Wraps,SBD
4,Vladimír Okrajek,O,Slovakia,87,-240,240,255,255,,120,130,140,140,,250,270,280,280,,675,90,M,,Wraps,SBD
5,Imad Bahria,O,France,89,240,-260,-260,240,,122.5,130,135,135,,265,285,-295,285,,660,90,M,,Wraps,SBD
6,Romano Rengel,O,Germany,90,210,225,235,235,,170,-185,-185,170,,225,-240,-240,225,,630,90,M,,Wraps,SBD
7,Jakub Štefanica,O,Czechia,87.7,177.5,190,-205,190,,117.5,125,130,130,,230,240,250,250,,570,90,M,,Wraps,SBD
8,Chris Johnston #3,O,UK,87.5,190,-205,-205,190,,105,112.5,115,115,,220,235,-245,235,,540,90,M,,Wraps,SBD
1,Pasi Koukkala,M1,Finland,87.7,180,200,,200,,110,120,125,125,,230,255,,255,,580,90,M,,Wraps,SBD
2,Stephane Bouton,M1,France,89.1,140,150,160,160,,127.5,137.5,142.5,142.5,,175,185,190,190,,492.5,90,M,,Wraps,SBD
1,Ivan Giňovský,M2,Slovakia,89.8,202.5,217.5,225,225,231,120,127.5,132.5,132.5,,202.5,215,222.5,222.5,,580,90,M,,Wraps,SBD
2,Gérard Ivars,M2,France,87.1,-200,210,220,220,-230.5,110,115,120,120,,215,225,-240,225,,565,90,M,,Wraps,SBD
1,Michal Červinka,M3,Slovakia,89.6,190,210,222.5,222.5,,110,117.5,120,120,,192.5,212.5,-232.5,212.5,,555,90,M,,Wraps,SBD
1,Frank Thomas Kutzsch,M4,Germany,88.8,202.5,215,-223,215,,152.5,156,160,160,163,210,228,235,235,242.5,610,90,M,,Wraps,SBD
1,Sándor Bezsenyi,M6,Hungary,84.6,140,150,157.5,157.5,,90,-100,102.5,102.5,,130,140,155,155,,415,90,M,,Wraps,SBD
1,Filip Hácha,T2,Czechia,90.4,140,150,-160,150,,90,95,100,100,,190,202.5,207.5,207.5,,457.5,100,M,,Wraps,SBD
1,János Rajmund Nagy,J,Hungary,98.1,250,-265,-265,250,,160,170,175,175,-183,285,300,315,315,,740,100,M,,Wraps,SBD
2,Roman Salaba,J,Czechia,91.8,215,227.5,237.5,237.5,,117.5,125,-132.5,125,,240,255,265,265,,627.5,100,M,,Wraps,SBD
3,Aaron Byrne,J,UK,99.1,180,190,200,200,,105,115,120,120,,220,240,250,250,,570,100,M,,Wraps,SBD
1,Martin Brown #1,O,UK,98.5,300,330,-340,330,,160,180,190,190,,275,300,317.5,317.5,,837.5,100,M,,Wraps,SBD
2,Petr Maceášik,O,Czechia,98.1,230,240,250,250,,190,200,210,210,,260,280,290,290,,750,100,M,,Wraps,SBD
3,Daniel Willars,O,UK,94.2,255,270,282.5,282.5,,150,160,165,165,,260,275,280,280,,727.5,100,M,,Wraps,SBD
4,Jordan Grimes,O,UK,97.7,240,255,270,270,,145,155,-160,155,,255,280,300,300,,725,100,M,,Wraps,SBD
5,Josef Makovský,O,Czechia,98.2,230,240,-250,240,,175,185,190,190,,-280,280,-290,280,,710,100,M,,Wraps,SBD
6,Darko Lazarević,O,Montenegro,98.1,220,235,245,245,,150,162.5,-167.5,162.5,,250,265,272.5,272.5,,680,100,M,,Wraps,SBD
7,Zsolt Faraga,O,Hungary,97.6,220,232.5,-237.5,232.5,,155,165,167.5,167.5,,240,247.5,-255,247.5,,647.5,100,M,,Wraps,SBD
DQ,Mario Stellmach,O,Germany,98.5,150,,,150,,,,,,,,,,,,,100,M,,Wraps,SBD
1,László Kiss,M2,Hungary,96.6,245,-265,275,275,,150,160,165,165,,240,260,270,270,,710,100,M,,Wraps,SBD
DQ,Vladimír Šlesingr,M2,Czechia,97.4,-200,,,,,,,,,,,,,,,,100,M,,Wraps,SBD
1,József Sztanke,M4,Hungary,94.3,210,240,-260,240,,150,165,172.5,172.5,-175,210,230,237.5,237.5,,650,100,M,,Wraps,SBD
2,Petr Nosek,M4,Czechia,96.2,115,125,135,135,,110,115,120,120,,130,135,140,140,,395,100,M,,Wraps,SBD
1,Vladimír Svoboda,M5,Czechia,96.8,160,175,185,185,,120,127.5,132.5,132.5,,160,180,187.5,187.5,,505,100,M,,Wraps,SBD
1,Tibor Guttek,T3,Slovakia,107.4,185,200,207.5,207.5,,110,115,117.5,117.5,,195,215,-222.5,215,,540,110,M,,Wraps,SBD
1,Dávid Nagy,J,Slovakia,109.6,-240,260,-280,260,,200,210,215,215,,280,-300,300,300,,775,110,M,,Wraps,SBD
2,Jan Teliska,J,Slovakia,109.4,200,220,-240,220,,160,-167.5,170,170,,230,-245,-245,230,,620,110,M,,Wraps,SBD
3,Ivan Lazor,J,Slovakia,107.3,185,200,212.5,212.5,,120,130,-140,130,,185,200,-207.5,200,,542.5,110,M,,Wraps,SBD
1,Delroy McQueen,O,UK,104.5,330,350.5,360,360,,160,170,-175,170,,330,350.5,-370,350.5,,880.5,110,M,,Wraps,SBD
2,Andriy Yaremus,O,Ukraine,109.8,305,320,330,330,,190,200,205,205,,285,300,-310,300,,835,110,M,Андрій Яремус,Wraps,SBD
3,Jiří Tkadlčík,O,Czechia,106.6,265,280,302.5,302.5,,180,190,-195,190,,300,332.5,,332.5,,825,110,M,,Wraps,SBD
4,Viktor Horeš,O,Slovakia,108.2,-230,230,-250,230,,197.5,-205,205,205,,275,292.5,-300,292.5,,727.5,110,M,,Wraps,SBD
5,Christopher Röper,O,Germany,106.9,215,230,-240,230,,162.5,170,175,175,,250,275,-290,275,,680,110,M,,Wraps,SBD
6,Jakub Gutej,O,Czechia,104.9,210,220,-230,220,,140,145,-152.5,145,,210,225,-230,225,,590,110,M,,Wraps,SBD
1,Igor Zarubov,M1,Russia,107.7,-200,-200,200,200,,150,160,170,170,,200,210,220,220,,590,110,M,Игорь Зарубов,Wraps,SBD
2,Dmitriy Kosarev,M1,Russia,109.4,170,175,180,180,,180,185,-187.5,185,,190,210,-230,210,,575,110,M,Дмитрий Косарев,Wraps,SBD
1,Ferenc Gyenes,M2,Hungary,106.9,255,265,272.5,272.5,275,155,-162.5,162.5,162.5,,265,-278,-278,265,,700,110,M,,Wraps,SBD
2,Václav Mareš,M2,Czechia,107.3,200,230,-240,230,,165,180,-190,180,,250,275,-290,275,,685,110,M,,Wraps,SBD
3,Michal Šafařík,M2,Czechia,108.5,245,255,265.5,265.5,273,150,160,-165,160,,100,,,100,,525.5,110,M,,Wraps,SBD
1,Luboš Halenkovský,M3,Czechia,101.2,100,,,100,,110,-120,-122.5,110,,100,,,100,,310,110,M,,Wraps,SBD
1,Jaroslav Šolc,M4,Slovakia,105.7,190,-210,216,216,,135,146,151,151,,190,205,216,216,,583,110,M,,Wraps,SBD
1,Panajotis Bachcevanidis,M5,Czechia,100.4,-90,95,102.5,102.5,,90,100,102.5,102.5,,120,135,140,140,,345,110,M,,Wraps,SBD
1,Stefan Plundrak,T2,Czechia,124.7,225,237.5,247.5,247.5,,125,137.5,146,146,150,190,212.5,222.5,222.5,,616,125,M,,Wraps,SBD
1,Adam Kekelak,T3,Slovakia,112.4,195,207.5,212.5,212.5,,142.5,150,-157.5,150,,207.5,222.5,237.5,237.5,,600,125,M,,Wraps,SBD
1,Mateusz Skrzat,J,Poland,115.5,175,190,202.5,202.5,,140,150,-160,150,,190,210,-220,210,,562.5,125,M,,Wraps,SBD
1,Sergej Moser,O,Germany,121.8,340,355.5,365,365,,220,232.5,237.5,237.5,,330,345,-355.5,345,,947.5,125,M,,Wraps,SBD
2,Alexander Clarke,O,UK,117.5,250,270,285,285,,160,170,-180,170,,305,325,330,330,,785,125,M,,Wraps,SBD
3,Milan Smiljanić,O,Serbia,125,285,-302.5,-310,285,,205,215,220,220,,270,280,-285,280,,785,125,M,,Wraps,SBD
4,Nikita Voronov,O,Russia,116.8,260,275,290,290,,180,192.5,-197.5,192.5,,265,280,300,300,,782.5,125,M,Никита Воронов,Wraps,SBD
5,Jan Suda,O,Czechia,111.3,235,250,262.5,262.5,,172.5,177.5,185,185,,250,270,280,280,,727.5,125,M,,Wraps,SBD
6,Janne Ihalainen,O,Finland,115.4,-220,230,245,245,,175,185,-192.5,185,,280,-300,-300,280,,710,125,M,,Wraps,SBD
7,Michael Becherer,O,Germany,113.5,-230,245,250,250,,170,-175,-175,170,,230,245,-262.5,245,,665,125,M,,Wraps,SBD
8,Martin Malínek,O,Czechia,118.9,200,212.5,220,220,,140,152.5,,152.5,,235,245,255,255,,627.5,125,M,,Wraps,SBD
1,František Tesařík,M1,Czechia,118.9,260,275,285,285,,200,207.5,-210,207.5,,285,300,-307.5,300,,792.5,125,M,,Wraps,SBD
2,Yakov Berman,M1,Russia,112.4,250,265,275,275,,200,210,215,215,,280,300,-310,300,,790,125,M,Яков Берман,Wraps,SBD
3,Jan Vojtěchovský,M1,Czechia,124.4,260,-280,-280,260,,165,175,180,180,,280,300,305,305,,745,125,M,,Wraps,SBD
1,Petri Billy Haavisto,M2,Finland,119.9,230,252.5,260,260,,185,197.5,205,205,,265,285,-292.5,285,,750,125,M,,Wraps,SBD
2,Saša Mašanović,M2,Montenegro,120.2,130,140,150,150,,130,135,137.5,137.5,,160,180,192.5,192.5,,480,125,M,,Wraps,SBD
1,Bence Szabo,T3,Slovakia,133.1,-210,220,237.5,237.5,,130,-145,-145,130,,220,247.5,250,250,,617.5,140,M,,Wraps,SBD
1,Aleksandar Ilić,J,Serbia,137.7,260,280,285,285,,205,215,220,220,225,270,290,-302.5,290,,795,140,M,,Wraps,SBD
1,Marek Pivovarnik,O,Slovakia,127.2,200,220,230,230,,150,165,172.5,172.5,,250,260,-267.5,260,,662.5,140,M,,Wraps,SBD
DQ,Denis Makeev,O,Russia,129.9,-220,,,,,,,,,,,,,,,,140,M,Денис Макеев,Wraps,SBD
DQ,Alexandar Stankovic,O,Serbia,139.7,300,-315,,300,,,,,,,,,,,,,140,M,,Wraps,SBD
1,Fekete Gergely,O,Hungary,175,210,227.5,240,240,,167.5,177.5,,177.5,,255,275,282.5,282.5,,700,140+,M,,Wraps,SBD
1,Sabine Guillaume,M3,France,47.4,115,125,130,130,,62.5,67.5,,67.5,,-140,140,150,150,,347.5,48,F,,Multi-ply,SBD
1,Tímea Nagy,T2,Hungary,57.1,120,130,-140,130,-151,60,-70,-70,60,,110,120,-122.5,120,,310,60,F,,Multi-ply,SBD
1,Milada Andraščíková,O,Slovakia,60,-150,150,-165,150,,75,85,-90,85,,150,-160,165,165,,400,60,F,,Multi-ply,SBD
1,Laura Hague,J,UK,66.5,-190,190,205,205,,110,120,-128,120,-128,145,165,175,175,,500,67.5,F,,Multi-ply,SBD
1,Jana Vašková,J,Slovakia,73.7,170,-182.5,-182.5,170,,95,100,105,105,,140,155,170,170,,445,75,F,,Multi-ply,SBD
1,Jennifer Milliron-O'Neil,O,Ireland,75,250,270,-290,270,,140,152.5,162.5,162.5,,225,-232,,225,,657.5,75,F,,Multi-ply,SBD
1,Máté Csiszár,T1,UK,51.7,90,-100,100,100,,55,-60,60,60,,112.5,120,130,130,,290,52,M,,Multi-ply,SBD
1,Jonathan Bar,T3,France,56,115,-122.5,-125,115,,70,77.5,-82.5,77.5,,140,-150,-150,140,,332.5,56,M,,Multi-ply,SBD
1,Aleksandr Romanichev,M3,Israel,55.7,162.5,172.5,185,185,,110,115,122.5,122.5,,160,180,-190,180,,487.5,56,M,,Multi-ply,SBD
1,Filip Kaňák,J,Czechia,62.2,140,-155,-155,140,,75,90,-100,90,,145,160,-185,160,,390,67.5,M,,Multi-ply,SBD
1,Daniel Pianka,O,Czechia,62.3,140,175,185,185,,90,125,135,135,,185,200,210,210,,530,67.5,M,,Multi-ply,SBD
1,Thierry Graff,M2,France,65.1,170,180,185,185,,125,135,-140,135,,190,205,215,215,,535,67.5,M,,Multi-ply,SBD
1,Jaroslav Martiček,T2,Slovakia,74.9,-200,200,220,220,,145,152.5,157.5,157.5,,180,195,-205,195,,572.5,75,M,,Multi-ply,SBD
1,Hans-Jürgen Kaule,M4,Germany,74.8,220,-240,240,240,,160,,,160,,220,240,250,250,261,650,75,M,,Multi-ply,SBD
1,Patrik Vaverčák,T2,Slovakia,78.9,225,235,250,250,,-140,145,155,155,,190,205,215,215,,620,82.5,M,,Multi-ply,SBD
1,Daniel Russell,J,UK,82.3,280,-300,-300,280,,180,-200,-200,180,,280,-291,-291,280,,740,82.5,M,,Multi-ply,SBD
1,András Csiszár,M1,UK,82,240,260,270,270,,160,-180,180,180,,240,260,270,270,,720,82.5,M,,Multi-ply,SBD
1,Péter Gaál,M3,Hungary,78.5,-170,185,-200,185,,125,130,,130,,180,190,200,200,,515,82.5,M,,Multi-ply,SBD
1,Csaba Keszthelyi,M9,Hungary,77.9,105,115,120,120,,65,80,-85,80,,130,140,145,145,,345,82.5,M,,Multi-ply,SBD
1,Marcel Beličák,T2,Slovakia,88.3,220,235,-250,235,,-135,135,145,145,,190,205,-210,205,,585,90,M,,Multi-ply,SBD
1,Milan Stanković,T3,Serbia,86.9,270,280,,280,,140,-152.5,155,155,,285,301,-318,301,,736,90,M,,Multi-ply,SBD
1,Marek Biroš,O,Slovakia,89.8,300,-315,315,315,,210,225,-235,225,,250,-270,270,270,,810,90,M,,Multi-ply,SBD
DQ,Darren Quinn,O,Ireland,87.3,-290,-290,,,,,,,,,,,,,,,90,M,,Multi-ply,SBD
1,Pasi Koukkala,M1,Finland,88.9,260,280,,280,,145,155,-160,155,,260,-310.5,,260,,695,90,M,,Multi-ply,SBD
2,Markus Rücker,M1,Germany,84.7,220,235,245,245,,145,155,-165,155,,230,245,255,255,,655,90,M,,Multi-ply,SBD
1,Valery Tomilov,M2,Israel,89.6,310,-342.5,,310,,210,225,232.5,232.5,,260,280,,280,,822.5,90,M,,Multi-ply,SBD
1,Adrian Tucker,M3,UK,85.9,290,315,-320,315,,170,180,-190,180,,240,265,-275,265,,760,90,M,,Multi-ply,SBD
1,Stanislav Hoza,M4,Czechia,86.4,270,290,302.5,302.5,,175,180,,180,,200,220,,220,,702.5,90,M,,Multi-ply,SBD
1,Jozef Vrábel,T3,Slovakia,100,310,-331,331,331,-340,220,230,-237.5,230,-237.5,265,285,,285,,846,100,M,,Multi-ply,SBD
1,Scott Halliday,O,UK,99.9,325,350,360,360,,220,232.5,240,240,,300,310,320,320,,920,100,M,,Multi-ply,SBD
2,Erik Knöfler,O,Germany,96.6,-355,-355,355,355,,210,-220,220,220,,300,315,325,325,,900,100,M,,Multi-ply,SBD
3,Matthew Balfour,O,UK,99.7,300,320,340,340,,-230,230,-255,230,,280,-300,,280,,850,100,M,,Multi-ply,SBD
4,Jan Jíša,O,Czechia,99.1,-330,330,-350,330,,210,220,-230,220,,260,-270,270,270,,820,100,M,,Multi-ply,SBD
5,Martin Hurdálek,O,Czechia,97.7,320,335,-340,335,,220,240,-250,240,,220,240,,240,,815,100,M,,Multi-ply,SBD
6,Michal Andraščík,O,Slovakia,94.8,-300,320,-340,320,,200,215,220,220,,250,260,270,270,,810,100,M,,Multi-ply,SBD
7,Lukáš Jiruška,O,Czechia,98.9,-290,290,310,310,,210,220,-230,220,,260,270,,270,,800,100,M,,Multi-ply,SBD
8,Ristomatti Vaananen,O,Finland,99.3,240,-260,260,260,,150,165,-180,165,,220,-245,245,245,,670,100,M,,Multi-ply,SBD
1,Torsten Kammer,M2,Germany,92.3,-220,220,235,235,,140,150,-155,150,,195,207.5,215,215,,600,100,M,,Multi-ply,SBD
1,Michal Červinka,M3,Slovakia,90.3,250,270,-285,270,,140,152.5,-162.5,152.5,,220,240,255,255,,677.5,100,M,,Multi-ply,SBD
1,Libor Hurdálek,M4,Czechia,96.9,230,-250,-250,230,,150,-160,-160,150,,190,210,-220,210,,590,100,M,,Multi-ply,SBD
1,Kyle Vauls,O,UK,109.4,360,-380,380,380,,260,280,,280,,300,317.5,,317.5,,977.5,110,M,,Multi-ply,SBD
2,Sándor Bordás,O,Hungary,108.2,320,350,-370,350,,250,270,280,280,,280,290,-300,290,,920,110,M,,Multi-ply,SBD
3,Pavel Hurdálek,O,Czechia,109.2,330,350,370,370,,-220,220,,220,,260,-280,-280,260,,850,110,M,,Multi-ply,SBD
4,David Anderson #2,O,UK,105.8,-300,300,,300,,250,-260,-260,250,,250,260,-270,260,,810,110,M,,Multi-ply,SBD
1,Andrew Saunders,M2,UK,102.6,-300,-300,300,300,,-250,-265,265,265,,200,,,200,,765,110,M,,Multi-ply,SBD
1,Patrik Navara,J,Czechia,113.7,-370,370,-390,370,,245,255,262.5,262.5,,280,300,-315,300,,932.5,125,M,,Multi-ply,SBD
2,Nikola Piruze,J,Serbia,119.1,345,360,-375,360,,210,230,240,240,,260,-275,275,275,,875,125,M,,Multi-ply,SBD
1,Silvio Rücker,O,Germany,123.3,300,315,325,325,,215,225,240,240,,250,-265,265,265,,830,125,M,,Multi-ply,SBD
2,Sven Lorenz,O,Germany,110.4,280,300,312.5,312.5,,190,-200,210,210,,250,270,-277.5,270,,792.5,125,M,,Multi-ply,SBD
DQ,Vladimír Jeřábek,O,Czechia,124.7,-340,-350,-350,,,,,,,,330,352.5,-360,352.5,,,125,M,,Multi-ply,SBD
1,Gary Boulton,M2,UK,122.8,335,-367.5,-367.5,335,,200,210,-220,210,,265,300,-310,300,,845,125,M,,Multi-ply,SBD
2,Eric Bar,M2,France,122.4,225,-245,-245,225,,202.5,212.5,-220,212.5,,250,265,-270,265,,702.5,125,M,,Multi-ply,SBD
1,Aki Tuulaniemi,T3,Finland,126.6,300,320,-345,320,,240,-260,-260,240,,255,-275,,255,,815,140,M,,Multi-ply,SBD
1,Martin Homola,J,Czechia,131.4,370,400,,400,,190,200,210,210,,290,310,,310,,920,140,M,,Multi-ply,SBD
1,Marek Kerekes,O,Slovakia,127.6,305,320,330,330,,205,215,222.5,222.5,,220,-240,-240,220,,772.5,140,M,,Multi-ply,SBD
2,Denis Makeev,O,Russia,128.1,235,260,280,280,,125,135,140,140,,290,310,320,320,,740,140,M,Денис Макеев,Multi-ply,SBD
DQ,Johannes Impiö,O,Finland,139.2,400,-425,-425,400,,-285,-285,-285,,,,,,,,,140,M,,Multi-ply,SBD
1,Václav Češka,O,Czechia,147.7,-380,-380,380,380,,235,240,245,245,,-310,310,-325,310,,935,140+,M,,Multi-ply,SBD
1,Katalin Mezei,O,Hungary,51.4,,,,,,50,55,60,60,,,,,,,60,52,F,,Raw,B
2,Leona Mikulášková,O,Czechia,49.6,,,,,,45,47.5,-50,47.5,,,,,,,47.5,52,F,,Raw,B
1,Bettina Razzovki-Korkis,M2,Poland,50.8,,,,,,55,-61,-61,55,,,,,,,55,52,F,,Raw,B
1,Slávka Ratvajská,M1,Slovakia,53.9,,,,,,45,50,55,55,,,,,,,55,56,F,,Raw,B
1,Monika Mikulová,J,Slovakia,58.8,,,,,,70,75,-77.5,75,,,,,,,75,60,F,,Raw,B
1,Malrgorzata Korelewska Halas,O,Poland,59.9,,,,,,88,92,94,94,,,,,,,94,60,F,,Raw,B
2,Honorata Kaczorowska,O,Poland,57.9,,,,,,82.5,90,92,92,,,,,,,92,60,F,,Raw,B
1,Ilona Egri,M1,Hungary,58.8,,,,,,60,62.5,-65,62.5,,,,,,,62.5,60,F,,Raw,B
1,Rita Nagy,O,Hungary,64,,,,,,105,110,117.5,117.5,,,,,,,117.5,67.5,F,,Raw,B
2,Daria Krenn,O,Russia,66.6,,,,,,110,-117.5,-117.5,110,,,,,,,110,67.5,F,,Raw,B
3,Kristýna Hrůzova,O,Czechia,60.6,,,,,,65,70,-75,70,,,,,,,70,67.5,F,,Raw,B
1,Marlies Götze,J,Germany,69.3,,,,,,60,65,-70,65,-70,,,,,,65,75,F,,Raw,B
1,Olga Dolinskaya,O,Russia,68.6,,,,,,70,75,-77.5,75,,,,,,,75,75,F,Ольга Долинская,Raw,B
1,Minna Pajulahti,O,Finland,78.7,,,,,,100,107.5,110,110,110.5,,,,,,110,82.5,F,,Raw,B
2,Olga Verbova,O,Russia,79.3,,,,,,100,105,-110,105,,,,,,,105,82.5,F,Ольга Вербова,Raw,B
3,Zuzana Žlebková,O,Czechia,81.1,,,,,,65,70,75,75,,,,,,,75,82.5,F,,Raw,B
1,Gisela Witte,M4,Germany,76.9,,,,,,50,60,65,65,67.5,,,,,,65,82.5,F,,Raw,B
1,Kaplan Skhalyakho,J,Russia,50.9,,,,,,80,-85,85,85,,,,,,,85,52,M,Каплан Схаляхо,Raw,B
1,Nándor Tunkel,O,Hungary,44.2,,,,,,132.5,141,-142.5,141,,,,,,,141,52,M,,Raw,B
1,Aleksandr Romanichev,M3,Israel,55.7,,,,,,-100,100,110,110,,,,,,,110,56,M,,Raw,B
1,Vladimir Agasaryan,J,Lithuania,67,,,,,,137.5,140,141,141,,,,,,,141,67.5,M,,Raw,B
2,Gregor Vuk,J,Slovakia,67.5,,,,,,135,-140,-141,135,,,,,,,135,67.5,M,,Raw,B
1,Yanis Kalaychev,O,Russia,62.8,,,,,,140,155,160.5,160.5,165,,,,,,160.5,67.5,M,Янис Калайчев,Raw,B
2,Kamil Kadiev,O,Russia,67.2,,,,,,145,156,-160.5,156,,,,,,,156,67.5,M,,Raw,B
3,Aleksey Okunev,O,Russia,66.1,,,,,,120,135,-140,135,,,,,,,135,67.5,M,Алексей Окунев,Raw,B
1,Zsolt Karlik,M1,Hungary,66.5,,,,,,132.5,135,137.5,137.5,,,,,,,137.5,67.5,M,,Raw,B
1,István Tóth,M4,Hungary,60.9,,,,,,130,137.5,-140,137.5,,,,,,,137.5,67.5,M,,Raw,B
1,Antoni Kaliňski,M5,Poland,67,,,,,,95,100,105,105,,,,,,,105,67.5,M,,Raw,B
1,Yves Garcia,M7,France,66.6,,,,,,80,85.5,-90,85.5,,,,,,,85.5,67.5,M,,Raw,B
1,Balázs Hajdú,T2,Hungary,73.1,,,,,,137.5,145,-150,145,,,,,,,145,75,M,,Raw,B
2,Mateusz Czarnecki,T2,Poland,73.9,,,,,,115,125,-127.5,125,,,,,,,125,75,M,,Raw,B
1,Patrik Tomáš,T3,Czechia,67.9,,,,,,105,110,112.5,112.5,-115,,,,,,112.5,75,M,,Raw,B
1,Paweł Nowak,J,Poland,74.2,,,,,,155,157.5,162.5,162.5,,,,,,,162.5,75,M,,Raw,B
2,Aslanbek Pchikhachev,J,Russia,73.4,,,,,,-120,140,-145,140,,,,,,,140,75,M,Асланбек Пчихачев,Raw,B
1,Dominik Skrzyňski,O,Poland,70.8,,,,,,170,180.5,-182.5,180.5,,,,,,,180.5,75,M,,Raw,B
2,Christian Clampariu,O,Austria,74.9,,,,,,142.5,152.5,-157.5,152.5,,,,,,,152.5,75,M,,Raw,B
1,Guylhem Feraud,M6,France,73.3,,,,,,100,107.5,112.5,112.5,,,,,,,112.5,75,M,,Raw,B
1,Mateusz Gajewicz,J,Poland,80.5,,,,,,185,-190,-190,185,,,,,,,185,82.5,M,,Raw,B
2,Lukáš Forejtek,J,Czechia,81.7,,,,,,135,145,-150,145,-150,,,,,,145,82.5,M,,Raw,B
3,Mathieu Moscato,J,France,81.8,,,,,,112.5,117.5,125,125,,,,,,,125,82.5,M,,Raw,B
1,Robert Wrzawiński,O,Poland,81.7,,,,,,197.5,205,210,210,-218,,,,,,210,82.5,M,,Raw,B
2,Gatis Biezais,O,Latvia,81.7,,,,,,170,175,177.5,177.5,,,,,,,177.5,82.5,M,,Raw,B
3,Martins Blums,O,Latvia,81.9,,,,,,155,-160,160,160,,,,,,,160,82.5,M,,Raw,B
4,Milan Kaňka,O,Czechia,80.5,,,,,,140,145,-150,145,,,,,,,145,82.5,M,,Raw,B
1,Aleksey Sutugin,M1,Russia,79.3,,,,,,140,150,155,155,,,,,,,155,82.5,M,Алексей Сутугин,Raw,B
2,Attila Nyikos-Kiss,M1,Hungary,81.7,,,,,,105,110,115,115,,,,,,,115,82.5,M,,Raw,B
1,Thomas Wagner,M4,Germany,79.8,,,,,,110,112.5,115,115,,,,,,,115,82.5,M,,Raw,B
1,Gerd Meyerhofer,M8,Germany,78.5,,,,,,60,65,-70,65,,,,,,,65,82.5,M,,Raw,B
1,Pavel Nosek,T2,Czechia,82.51,,,,,,115,120,125,125,,,,,,,125,90,M,,Raw,B
1,Milos Jeknic,J,Montenegro,88.2,,,,,,180,185,-187.5,185,,,,,,,185,90,M,,Raw,B
2,Márk Kurucz,J,Hungary,88.3,,,,,,170,177.5,-187.5,177.5,,,,,,,177.5,90,M,,Raw,B
3,David Gryc,J,Czechia,89.3,,,,,,132.5,140,-145,140,,,,,,,140,90,M,,Raw,B
4,Pavel Křiž,J,Czechia,84.7,,,,,,130,140,-142.5,140,,,,,,,140,90,M,,Raw,B
1,Jakub Sedláček,O,Czechia,85.6,,,,,,200,207.5,212.5,212.5,,,,,,,212.5,90,M,,Raw,B
2,Patryk Szypuła,O,Poland,90,,,,,,200,207.5,-213,207.5,,,,,,,207.5,90,M,,Raw,B
3,Viesturs Eidemanis,O,Latvia,89.4,,,,,,195,200,-205,200,,,,,,,200,90,M,,Raw,B
4,János Fazekas,O,Hungary,88.1,,,,,,180,190,-200,190,,,,,,,190,90,M,,Raw,B
5,Rami Leiviskä,O,Finland,89.2,,,,,,180,190,-195,190,,,,,,,190,90,M,,Raw,B
6,Branislav Milenković,O,Serbia,89.3,,,,,,180,-190,-192.5,180,,,,,,,180,90,M,,Raw,B
7,Dmitriy Petrov,O,Russia,86.1,,,,,,170,175,-180,175,,,,,,,175,90,M,Дмитрий Петров,Raw,B
8,Cedric Changiuy,O,France,88.3,,,,,,165,175,-182.5,175,,,,,,,175,90,M,,Raw,B
9,Petr Vaculka,O,Czechia,88.7,,,,,,145,152.5,157.5,157.5,,,,,,,157.5,90,M,,Raw,B
1,Petr Mozola,M1,Czechia,88.7,,,,,,160,170,175,175,,,,,,,175,90,M,,Raw,B
2,Stephane Bouton,M1,France,88.6,,,,,,127.5,135,140,140,,,,,,,140,90,M,,Raw,B
2,Robert Tomáš,M1,Czechia,84.5,,,,,,130,-135,-135,130,,,,,,,130,90,M,,Raw,B
1,László Kupcsik,M2,Hungary,87.8,,,,,,200,217.5,222.5,222.5,,,,,,,222.5,90,M,,Raw,B
2,Valery Tomilov,M2,Israel,90,,,,,,160,170,175,175,,,,,,,175,90,M,,Raw,B
3,Tilo Kupper,M2,Switzerland,88.6,,,,,,165,-167.5,167.5,167.5,,,,,,,167.5,90,M,,Raw,B
4,Jean-Marc Albert,M2,France,89.6,,,,,,130,140,-145,140,,,,,,,140,90,M,,Raw,B
5,Maris Pujats,M2,Latvia,82.51,,,,,,112.5,-125,-125,112.5,,,,,,,112.5,90,M,,Raw,B
1,Jean-François Denis,M4,France,87.1,,,,,,153,162.5,175,175,177.5,,,,,,175,90,M,,Raw,B
1,Jozef Völgyák,M5,Slovakia,88.5,,,,,,140,145,150,150,,,,,,,150,90,M,,Raw,B
1,František Esser,M6,Czechia,89.7,,,,,,130,135,137.5,137.5,,,,,,,137.5,90,M,,Raw,B
2,Valērijs Petrovs,M6,Latvia,89.9,,,,,,120,127.5,130,130,,,,,,,130,90,M,,Raw,B
1,Viktor Gergő Vakarcs,T3,Hungary,93.5,,,,,,180,187.5,193,193,,,,,,,193,100,M,,Raw,B
2,Petr Svoboda,T3,Czechia,96.2,,,,,,145,155,-162.5,155,,,,,,,155,100,M,,Raw,B
1,Dávid Mészáros,J,Hungary,97.9,,,,,,200,207.5,213,213,,,,,,,213,100,M,,Raw,B
2,Marek Brna,J,Slovakia,99.9,,,,,,180,190,-192.5,190,,,,,,,190,100,M,,Raw,B
1,Andrzej Kocyła,O,Poland,98.3,,,,,,210,220,232.5,232.5,-238.5,,,,,,232.5,100,M,,Raw,B
2,Ákos Oláh,O,Hungary,99.5,,,,,,220,-230,-232.5,220,,,,,,,220,100,M,,Raw,B
3,Clement Bernardi De,O,France,96.4,,,,,,200,210,215,215,,,,,,,215,100,M,,Raw,B
4,Petr Maceášik,O,Czechia,97.6,,,,,,200,210,-215,210,,,,,,,210,100,M,,Raw,B
5,Christoph Poplawsky,O,France,95.6,,,,,,167.5,-177.5,-177.5,167.5,,,,,,,167.5,100,M,,Raw,B
6,Martin Horák,O,Czechia,93.5,,,,,,155,-165,-165,155,,,,,,,155,100,M,,Raw,B
1,Hovhannes Yazichyan,M1,Poland,94.2,,,,,,195,200,205,205,207,,,,,,205,100,M,,Raw,B
1,Normunds Sproģis,M2,Latvia,96,,,,,,190,200,210,210,,,,,,,210,100,M,,Raw,B
2,Bruno Walter,M2,Czechia,98.4,,,,,,195,-202.5,-202.5,195,,,,,,,195,100,M,,Raw,B
3,Tomáš Sedláček,M2,Czechia,98.5,,,,,,152.5,160,165,165,,,,,,,165,100,M,,Raw,B
4,William Le Thiec,M2,France,95.5,,,,,,132.5,142.5,-145,142.5,,,,,,,142.5,100,M,,Raw,B
1,Igor Lebedev,M3,Russia,99.4,,,,,,190,200,-205,200,205,,,,,,200,100,M,Игорь Лебедев,Raw,B
1,József Sztanke,M4,Hungary,93.7,,,,,,150,165,170,170,,,,,,,170,100,M,,Raw,B
2,Imrich Činčura,M4,Slovakia,98.6,,,,,,157.5,165,-170,165,,,,,,,165,100,M,,Raw,B
1,Didier Douet,M5,France,99,,,,,,-115,115,-120,115,,,,,,,115,100,M,,Raw,B
1,Marc Assirelli,M6,France,93.9,,,,,,125,130,135,135,,,,,,,135,100,M,,Raw,B
1,Květoslav Štora,M7,Czechia,97,,,,,,87.5,92.5,-97.5,92.5,,,,,,,92.5,100,M,,Raw,B
1,Stefan Manasić,J,Serbia,107.4,,,,,,170,180,-185,180,,,,,,,180,110,M,,Raw,B
2,Abraham Tamas,J,Hungary,100.6,,,,,,145,150,-155,150,,,,,,,150,110,M,,Raw,B
1,Artur Rejek,O,Poland,109.7,,,,,,240,245.5,250,250,,,,,,,250,110,M,,Raw,B
2,Oliver Beck,O,Germany,109,,,,,,210,-220,222.5,222.5,,,,,,,222.5,110,M,,Raw,B
3,Jindřich Dressler,O,Czechia,107.7,,,,,,200,210,220,220,,,,,,,220,110,M,,Raw,B
4,Patrik Loza,O,Czechia,105,,,,,,190,197.5,-200,197.5,,,,,,,197.5,110,M,,Raw,B
5,Ľubomír Vidiščák,O,Slovakia,108.5,,,,,,190,-195,-195,190,,,,,,,190,110,M,,Raw,B
DQ,Stanislav Tůma,O,Czechia,101.3,,,,,,-165,-165,-165,,,,,,,,,110,M,,Raw,B
1,Imrich Klacso,M1,Slovakia,103.2,,,,,,185,-190,190,190,,,,,,,190,110,M,,Raw,B
2,Vladimir Varaksin,M1,Russia,105.8,,,,,,172.5,180,187.5,187.5,,,,,,,187.5,110,M,Владимир Вараксин,Raw,B
3,Dmitriy Kosarev,M1,Russia,108.8,,,,,,180,185,-190,185,,,,,,,185,110,M,Дмитрий Косарев,Raw,B
4,Gábor Tóth,M1,Hungary,102,,,,,,175,-185,-185,175,,,,,,,175,110,M,,Raw,B
1,István Hegedüs,M2,Hungary,105.4,,,,,,211,217.5,220,220,,,,,,,220,110,M,,Raw,B
2,Uģis Vācietis,M2,Latvia,108.4,,,,,,185,-192.5,,185,,,,,,,185,110,M,,Raw,B
3,Jaromír Mizera,M2,Czechia,107,,,,,,160,170,180,180,,,,,,,180,110,M,,Raw,B
1,Hermann Haraldsson,M3,Iceland,103.2,,,,,,165,172.5,177.5,177.5,-180.5,,,,,,177.5,110,M,,Raw,B
2,Robert Brasseur,M3,France,105.4,,,,,,155,162.5,-170.5,162.5,,,,,,,162.5,110,M,,Raw,B
3,Aleksandar Rakočević,M3,Montenegro,101.8,,,,,,160,-170,,160,,,,,,,160,110,M,,Raw,B
1,Miklos Peterdi,M4,Switzerland,104.4,,,,,,170,175,180,180,,,,,,,180,110,M,,Raw,B
2,Andrzej Staporek,M4,Poland,100.6,,,,,,115,120,125,125,,,,,,,125,110,M,,Raw,B
1,Romuald Massé,J,France,123.8,,,,,,205,215,220,220,,,,,,,220,125,M,,Raw,B
1,Christian Raidel,O,Austria,121.4,,,,,,240,247.5,-252.5,247.5,,,,,,,247.5,125,M,,Raw,B
2,Bartosz Chałaj,O,Poland,118.8,,,,,,235,240,-248,240,,,,,,,240,125,M,,Raw,B
3,Peter Hulin,O,Germany,118.5,,,,,,220,230,235,235,,,,,,,235,125,M,,Raw,B
4,Yaroslav Vdovychenko,O,Ukraine,115.4,,,,,,215,225,230,230,,,,,,,230,125,M,Ярослав Вдовиченко,Raw,B
5,Łukasz Kuzioła,O,Poland,120.1,,,,,,210,220,,220,,,,,,,220,125,M,,Raw,B
6,Jaroslav Zubko,O,Czechia,110.8,,,,,,-190,195,200,200,,,,,,,200,125,M,,Raw,B
7,Péter Kerecsényi,O,Hungary,115.4,,,,,,200,-207.5,-207.5,200,,,,,,,200,125,M,,Raw,B
1,Yakov Berman,M1,Russia,112.8,,,,,,200,210,215,215,,,,,,,215,125,M,Яков Берман,Raw,B
2,Tamás Szabó,M1,Hungary,117.8,,,,,,180,190,195,195,,,,,,,195,125,M,,Raw,B
3,Sergei Rudikov,M1,Israel,116.3,,,,,,190,-195,-195,190,,,,,,,190,125,M,,Raw,B
4,Milan Pado,M1,Slovakia,110.8,,,,,,170,180,-182.5,180,,,,,,,180,125,M,,Raw,B
1,Igor Pober,M2,Ukraine,125,,,,,,215,-225,225,225,,,,,,,225,125,M,Ігор Побер,Raw,B
2,Petri Billy Haavisto,M2,Finland,120.5,,,,,,185,195,202.5,202.5,,,,,,,202.5,125,M,,Raw,B
3,Pavel Reichel,M2,Czechia,111.2,,,,,,145,152.5,157.5,157.5,,,,,,,157.5,125,M,,Raw,B
4,Saša Mašanović,M2,Montenegro,121.2,,,,,,130,-137.5,-137.5,130,,,,,,,130,125,M,,Raw,B
1,Vladimír Kliment,M3,Czechia,122.6,,,,,,165,172.5,-177.5,172.5,,,,,,,172.5,125,M,,Raw,B
2,Alain Devins,M3,France,116.2,,,,,,82.5,90,-97.5,90,,,,,,,90,125,M,,Raw,B
1,Christian Lucas,M4,France,117.3,,,,,,175,180,184.5,184.5,186,,,,,,184.5,125,M,,Raw,B
1,Josef Hakl,M5,Czechia,112.4,,,,,,160,-167.5,-167.5,160,,,,,,,160,125,M,,Raw,B
1,Norbert Szigeti,J,Hungary,126,,,,,,170,177.5,182.5,182.5,,,,,,,182.5,140,M,,Raw,B
2,Martin Dousek,J,Czechia,128.2,,,,,,162.5,172.5,182.5,182.5,,,,,,,182.5,140,M,,Raw,B
1,Christoph Rieser,O,Austria,133.7,,,,,,240,252.5,-257.5,252.5,,,,,,,252.5,140,M,,Raw,B
2,Michal Szydlowski,O,Poland,134.1,,,,,,210,220,222.5,222.5,,,,,,,222.5,140,M,,Raw,B
3,Alexandr Slunský,O,Czechia,130.7,,,,,,210,220,-225,220,,,,,,,220,140,M,,Raw,B
4,Tomasz Węgliński,O,Poland,127.6,,,,,,205,-215,-220,205,,,,,,,205,140,M,,Raw,B
1,Zsolt Tóth,M1,Hungary,132.8,,,,,,190,200,205,205,,,,,,,205,140,M,,Raw,B
2,Jan Vítek,M1,Czechia,138.2,,,,,,170,177.5,182.5,182.5,,,,,,,182.5,140,M,,Raw,B
1,László Mészáros,M2,Hungary,131.4,,,,,,285,300,,300,,,,,,,300,140,M,,Raw,B
1,Jozef Péter,M5,Slovakia,132.5,,,,,,165,170,-180,170,,,,,,,170,140,M,,Raw,B
1,Rade Savić,O,Serbia,148.1,,,,,,270,280,-291,280,,,,,,,280,140+,M,,Raw,B
2,Adam Švehla,O,Czechia,140.6,,,,,,220,225,-230,225,,,,,,,225,140+,M,,Raw,B
1,Ingo Czeplinski,M1,Germany,158.2,,,,,,220,230,-240,230,,,,,,,230,140+,M,,Raw,B
DQ,János Szabó Ozor,M1,Hungary,155,,,,,,,,,,,,,,,,,140+,M,,Raw,B
1,Gregorz Peksa,M2,Poland,140.1,,,,,,190,-202.5,202.5,202.5,,,,,,,202.5,140+,M,,Raw,B
2,Maciej Kot Jerzy,M2,Poland,140.8,,,,,,150,160,-170,160,,,,,,,160,140+,M,,Raw,B
1,Petr Dubnický,M3,Czechia,146.6,,,,,,170,177.5,180,180,,,,,,,180,140+,M,,Raw,B
1,Karin Kaule Inge,M5,Germany,49.9,,,,,,52.5,55,-57.5,55,,,,,,,55,52,F,,Multi-ply,B
1,Marlena Sosidko,T2,Poland,58.6,,,,,,-72.5,72.5,-75,72.5,,,,,,,72.5,60,F,,Multi-ply,B
1,Anna Turaeva,O,Russia,81.1,,,,,,-170,-170,170,170,183.5,,,,,,170,82.5,F,Анна Тураева,Multi-ply,B
1,Angela McNamara,M1,Ireland,79.4,,,,,,130,137.5,145,145,,,,,,,145,82.5,F,,Multi-ply,B
1,Kaplan Skhalyakho,J,Russia,51.8,,,,,,100,107.5,-115,107.5,115,,,,,,107.5,52,M,Каплан Схаляхо,Multi-ply,B
1,Patryk Linkiewicz,T3,Poland,67.5,,,,,,152.5,155,160,160,,,,,,,160,67.5,M,,Multi-ply,B
DQ,Marek Suchodolski,M1,Poland,66.9,,,,,,-170,-170,-170,,,,,,,,,67.5,M,,Multi-ply,B
1,Thierry Graff,M2,France,64.5,,,,,,125,132.5,137.5,137.5,,,,,,,137.5,67.5,M,,Multi-ply,B
1,Ladislav Žítek,J,Czechia,74.4,,,,,,145,155,167.5,167.5,,,,,,,167.5,75,M,,Multi-ply,B
2,Aslanbek Pchikhachev,J,Russia,73.9,,,,,,130,140,142.5,142.5,,,,,,,142.5,75,M,Асланбек Пчихачев,Multi-ply,B
1,Joannis Sulime,M5,France,74.2,,,,,,115,120,-130,120,,,,,,,120,75,M,,Multi-ply,B
1,Matúš Demčák,T3,Slovakia,80.5,,,,,,-185,185,200,200,,,,,,,200,82.5,M,,Multi-ply,B
2,Kamil Lipiňski,T3,Poland,77,,,,,,110,-150,-150,110,,,,,,,110,82.5,M,,Multi-ply,B
1,Rafał Żarnowski,J,Poland,80,,,,,,-160,160,-165,160,,,,,,,160,82.5,M,,Multi-ply,B
1,Dalibor Ilijić,O,Serbia,82.5,,,,,,215,225,232.5,232.5,-250,,,,,,232.5,82.5,M,,Multi-ply,B
2,Łukasz Kozłowski,O,Poland,82.1,,,,,,210,215,-225,215,,,,,,,215,82.5,M,,Multi-ply,B
3,Zenon Jaworski Krzysztof,O,Poland,81.7,,,,,,130,135,-140,135,,,,,,,135,82.5,M,,Multi-ply,B
1,Saša Antić,M1,Serbia,79.1,,,,,,120,140,155,155,,,,,,,155,82.5,M,,Multi-ply,B
1,Jozef Slimák,M2,Slovakia,82.4,,,,,,165,175,-180,175,,,,,,,175,82.5,M,,Multi-ply,B
1,Thomas Wagner,M4,Germany,82.2,,,,,,112.5,117.5,122.5,122.5,,,,,,,122.5,82.5,M,,Multi-ply,B
1,Gerd Meyerhofer,M8,Germany,78.2,,,,,,60,65,70,70,,,,,,,70,82.5,M,,Multi-ply,B
1,Tomáš Kríž,J,Slovakia,89.9,,,,,,210,-245,-245,210,,,,,,,210,90,M,,Multi-ply,B
2,Adrian Młynkowlak,J,Poland,85.3,,,,,,150,-160,160,160,,,,,,,160,90,M,,Multi-ply,B
1,Ján Matej,O,Slovakia,85,,,,,,220,240,-255,240,,,,,,,240,90,M,,Multi-ply,B
2,Dawid Deptuch,O,Poland,90,,,,,,-240,240,-255,240,,,,,,,240,90,M,,Multi-ply,B
3,Aleksandr Verbitskiy,O,Russia,88.1,,,,,,190,200,210,210,,,,,,,210,90,M,Александр Вербицкий,Multi-ply,B
DQ,Przemyslaw Komarski,O,Poland,90,,,,,,-190,-190,-190,,,,,,,,,90,M,,Multi-ply,B
1,Miliza Antić,M1,Serbia,89.1,,,,,,140,170,180,180,,,,,,,180,90,M,,Multi-ply,B
2,Pasi Koukkala,M1,Finland,88.5,,,,,,145,-170,,145,,,,,,,145,90,M,,Multi-ply,B
1,Jean-Marc Albert,M2,France,90,,,,,,165,-172.5,-180,165,,,,,,,165,90,M,,Multi-ply,B
2,Luc Grandjean,M2,France,87.2,,,,,,-142.5,142.5,145,145,,,,,,,145,90,M,,Multi-ply,B
DQ,Franciszek Szabluk,M4,Poland,90,,,,,,-200,-200,-222.5,,,,,,,,,90,M,,Multi-ply,B
1,Jozef Völgyák,M5,Slovakia,89.2,,,,,,160,170,175,175,,,,,,,175,90,M,,Multi-ply,B
1,Valērijs Petrovs,M6,Latvia,90,,,,,,140,150,-160,150,,,,,,,150,90,M,,Multi-ply,B
1,Petr Svoboda,T3,Czechia,96.3,,,,,,160,170,-182.5,170,,,,,,,170,100,M,,Multi-ply,B
1,Mateusz Kołata,J,Poland,91.8,,,,,,160,-165,165,165,,,,,,,165,100,M,,Multi-ply,B
1,Mateusz Lewandowski,O,Poland,98.2,,,,,,205,210,225,225,,,,,,,225,100,M,,Multi-ply,B
2,Yuriy Ustinov,O,Russia,97.2,,,,,,160,180,,180,,,,,,,180,100,M,Юрий Устинов,Multi-ply,B
DQ,Krzysztof Zakrzewski,O,Poland,98.6,,,,,,-260,-260,-260,,,,,,,,,100,M,,Multi-ply,B
1,Juliusz Zbierski,M1,Poland,96.1,,,,,,-220,-220,220,220,,,,,,,220,100,M,,Multi-ply,B
1,Libor Hurdálek,M4,Czechia,98.1,,,,,,145,155,-170,155,,,,,,,155,100,M,,Multi-ply,B
1,Petr Bolf,O,Czechia,110,,,,,,-300,300,310,310,,,,,,,310,110,M,,Multi-ply,B
2,Miloš Ćećanović,O,Montenegro,104.7,,,,,,230,250,260,260,,,,,,,260,110,M,,Multi-ply,B
3,Stéphane Sana,O,France,107.3,,,,,,190,200,-220,200,,,,,,,200,110,M,,Multi-ply,B
1,Gennady Obermeister,M1,Israel,107.6,,,,,,-260,-260,260,260,,,,,,,260,110,M,,Multi-ply,B
2,Richard Riso,M1,France,104.3,,,,,,205,-210,-210,205,,,,,,,205,110,M,,Multi-ply,B
DQ,Imrich Klacso,M1,Slovakia,103.2,,,,,,-240,-245,-245,,,,,,,,,110,M,,Multi-ply,B
1,Ľuboš Tylišcak,M2,Slovakia,109.1,,,,,,263,-280,-280,263,,,,,,,263,110,M,,Multi-ply,B
2,Václav Mareš,M2,Czechia,107.3,,,,,,-235,240,-250,240,,,,,,,240,110,M,,Multi-ply,B
1,Hans-Ulrich Vetter,M5,Germany,107.4,,,,,,170,180,190,190,-205,,,,,,190,110,M,,Multi-ply,B
1,Grzegorz Wałga,O,Poland,110.3,,,,,,290,295,300,300,,,,,,,300,125,M,,Single-ply,B
2,Marek Hlaváč,O,Czechia,119.2,,,,,,272.5,-280,-290,272.5,,,,,,,272.5,125,M,,Multi-ply,B
3,Yevgen Pavlov,O,Ukraine,121.9,,,,,,-240,240,252.5,252.5,,,,,,,252.5,125,M,Євгеній Павлов,Multi-ply,B
4,Nenad Stojanović,O,Serbia,124.1,,,,,,-210,210,-252.5,210,,,,,,,210,125,M,,Multi-ply,B
DQ,Andis Kaspars,O,Latvia,113.1,,,,,,-240,-240,-252.5,,,,,,,,,125,M,,Multi-ply,B
DQ,Tomi Rantanen,O,Finland,138.2,,,,,,-350,-370,-390.5,,,,,,,,,140,M,,Multi-ply,B
1,Mirosław Zakrzewski,M1,Poland,110.8,,,,,,250,-260,-260,250,,,,,,,250,125,M,,Multi-ply,B
1,Saša Mašanović,M2,Montenegro,121.2,,,,,,165,-180,,165,,,,,,,165,125,M,,Multi-ply,B
1,Josef Hakl,M5,Czechia,112.3,,,,,,180,190,-200,190,,,,,,,190,125,M,,Multi-ply,B
1,Johannes Impiö,O,Finland,140.1,,,,,,285,,,285,,,,,,,285,140+,M,,Multi-ply,B
2,David Zdražil,O,Czechia,145.2,,,,,,255,270,280,280,,,,,,,280,140+,M,,Multi-ply,B
1,Jan Vítek,M1,Czechia,141,,,,,,190,205,215,215,,,,,,,215,140+,M,,Multi-ply,B
1,Bettina Razzovki-Korkis,M2,Poland,50.8,,,,,,,,,,,90,102.5,107.5,107.5,,107.5,52,F,,Raw,D
1,Honorata Kaczorowska,O,Poland,57.9,,,,,,,,,,,130,145,151,151,,151,60,F,,Raw,D
1,Rita Nagy,O,Hungary,64,,,,,,,,,,,160,170,175,175,,175,67.5,F,,Raw,D
1,Angela McNamara,M1,Ireland,78.9,,,,,,,,,,,190,200,-202.5,200,,200,82.5,F,,Raw,D
1,Huba Hablicsek,T2,Hungary,53.2,,,,,,,,,,,105,-115,115,115,,115,56,M,,Raw,D
1,Pavel Balážik,O,Slovakia,53.2,,,,,,,,,,,150,157.5,-170,157.5,,157.5,56,M,,Raw,D
1,Aleksandr Romanichev,M3,Israel,55.7,,,,,,,,,,,160,-170,170,170,,170,56,M,,Raw,D
1,Jan Pianka,O,Czechia,57.5,,,,,,,,,,,175,185,192.5,192.5,,192.5,60,M,,Raw,D
1,Martin Uher,J,Czechia,65.4,,,,,,,,,,,170,180,-185,180,,180,67.5,M,,Raw,D
1,Aleksey Okunev,O,Russia,66.1,,,,,,,,,,,210,220,-230,220,,220,67.5,M,Алексей Окунев,Raw,D
2,Lukáš Dorazil,O,Czechia,65,,,,,,,,,,,145,-155,160,160,,160,67.5,M,,Raw,D
1,Jakub Bouška,O,Czechia,70,,,,,,,,,,,180,190,-200,190,,190,75,M,,Raw,D
1,Guylhem Feraud,M6,France,73.3,,,,,,,,,,,160,170,,170,,170,75,M,,Raw,D
1,Richard Šos,T3,Czechia,75.01,,,,,,,,,,,150,165,180,180,,180,82.5,M,,Raw,D
1,Kamil Jung,O,Czechia,78.3,,,,,,,,,,,140,150,160,160,,160,82.5,M,,Raw,D
1,András Mák,M2,Hungary,80.6,,,,,,,,,,,220,230,-240,230,,230,82.5,M,,Raw,D
1,Jaroslav Tomanec,M7,Czechia,81.6,,,,,,,,,,,137.5,142.5,147.5,147.5,,147.5,82.5,M,,Raw,D
1,Richard Novotný,J,Czechia,84.4,,,,,,,,,,,260,280,-300,280,,280,90,M,,Raw,D
2,József Bartal,J,Hungary,85.6,,,,,,,,,,,230,245,250,250,,250,90,M,,Raw,D
1,János Fazekas,O,Hungary,88.1,,,,,,,,,,,250,265,285,285,,285,90,M,,Raw,D
2,Jakub Štefanica,O,Czechia,86.5,,,,,,,,,,,230,245,-255,245,,245,90,M,,Raw,D
1,Pasi Koukkala,M1,Finland,88,,,,,,,,,,,225,,,225,,225,90,M,,Raw,D
1,Valery Tomilov,M2,Israel,90,,,,,,,,,,,220,262.5,,262.5,,262.5,90,M,,Raw,D
2,László Kupcsik,M2,Hungary,87.8,,,,,,,,,,,240,260,-270,260,,260,90,M,,Raw,D
1,František Jung,M4,Czechia,85.8,,,,,,,,,,,132.5,150,162.5,162.5,,162.5,90,M,,Raw,D
1,František Esser,M6,Czechia,89.7,,,,,,,,,,,170,,,170,,170,90,M,,Raw,D
2,Sándor Bezsenyi,M6,Hungary,84.2,,,,,,,,,,,130,,,130,,130,90,M,,Raw,D
1,János Rajmund Nagy,J,Hungary,97.2,,,,,,,,,,,300,312.5,320,320,,320,100,M,,Raw,D
1,Lajos Bán,O,Hungary,98.2,,,,,,,,,,,230,245,-250,245,,245,100,M,,Raw,D
1,László Kiss,M2,Hungary,97,,,,,,,,,,,245,255,265,265,,265,100,M,,Raw,D
1,Paul Stark,J,Germany,101.9,,,,,,,,,,,255,270,-275,270,,270,110,M,,Raw,D
1,Ľubomír Trstenský,O,Slovakia,110,,,,,,,,,,,210,225,235,235,,235,110,M,,Raw,D
1,Norbert Hablicsek,M1,Hungary,102.7,,,,,,,,,,,240,260,270,270,,270,110,M,,Raw,D
1,Jaromír Mizera,M2,Czechia,107,,,,,,,,,,,200,230,-250,230,,230,110,M,,Raw,D
1,Vladimír Jeřábek,O,Czechia,123.6,,,,,,,,,,,300,320,342.5,342.5,,342.5,125,M,,Raw,D
1,Sergei Rudikov,M1,Israel,116.3,,,,,,,,,,,225,250,-270,250,,250,125,M,,Raw,D
1,Petri Billy Haavisto,M2,Finland,120.5,,,,,,,,,,,260,280,,280,,280,125,M,,Raw,D
1,Lee Marshall,M4,UK,115.8,,,,,,,,,,,300,320,330,330,,330,125,M,,Raw,D
1,Denis Makeev,O,Russia,129.5,,,,,,,,,,,280,300,312.5,312.5,,312.5,140,M,Денис Макеев,Raw,D
2,Marek Pivovarnik,O,Slovakia,125.2,,,,,,,,,,,240,260,-270,260,,260,140,M,,Raw,D
1,Fekete Gergely,O,Hungary,175,,,,,,,,,,,250,270,280,280,,280,140+,M,,Raw,D
1,Angela McNamara,M1,Ireland,79.4,,,,,,,,,,,190,200,,200,,200,82.5,F,,Multi-ply,D
1,Daniel Pianka,O,Czechia,59.9,,,,,,,,,,,190,200,207.5,207.5,,207.5,60,M,,Multi-ply,D
2,Jan Pianka,O,Czechia,57.2,,,,,,,,,,,185,195,-205,195,,195,60,M,,Multi-ply,D
1,Hans-Jürgen Kaule,M4,Germany,73.5,,,,,,,,,,,220,240,250,250,-261,250,75,M,,Multi-ply,D
1,Richard Šos,T3,Czechia,75.6,,,,,,,,,,,175,190,205,205,,205,82.5,M,,Multi-ply,D
1,Saša Antić,M1,Serbia,79.1,,,,,,,,,,,150,152.5,,152.5,,152.5,82.5,M,,Multi-ply,D
1,Tomáš Kalenský,J,Czechia,89.6,,,,,,,,,,,270,285,-292.5,285,,285,90,M,,Multi-ply,D
1,Aleksandr Verbitskiy,O,Russia,88.1,,,,,,,,,,,-220,220,230,230,,230,90,M,Александр Вербицкий,Multi-ply,D
2,Robin Oswald,O,Czechia,87.4,,,,,,,,,,,190,205,-210,205,,205,90,M,,Multi-ply,D
1,Pasi Koukkala,M1,Finland,88.5,,,,,,,,,,,260,,,260,,260,90,M,,Multi-ply,D
2,Miliza Antić,M1,Serbia,89.1,,,,,,,,,,,200,,,200,,200,90,M,,Multi-ply,D
1,Tamás Molnár,O,Hungary,98.8,,,,,,,,,,,305,320,327.5,327.5,,327.5,100,M,,Multi-ply,D
2,Yuriy Ustinov,O,Russia,97.2,,,,,,,,,,,230,250,,250,,250,100,M,Юрий Устинов,Multi-ply,D
1,Miloš Ćećanović,O,Montenegro,104.7,,,,,,,,,,,150,200,,200,,200,110,M,,Multi-ply,D
1,Václav Mareš,M2,Czechia,107.3,,,,,,,,,,,250,,,250,,250,110,M,,Multi-ply,D
1,Andis Kaspars,O,Latvia,113.1,,,,,,,,,,,280,-300,300,300,,300,125,M,,Multi-ply,D
2,Martin Mužný,O,Czechia,114.8,,,,,,,,,,,220,235,-245,235,,235,125,M,,Multi-ply,D
3,Nenad Stojanović,O,Serbia,124.1,,,,,,,,,,,150,,,150,,150,125,M,,Multi-ply,D
1,Lee Marshall,M4,UK,116.4,,,,,,,,,,,280,-300,,280,,280,125,M,,Multi-ply,D
1,Tomi Rantanen,O,Finland,138.2,,,,,,,,,,,350,-380,,350,,350,140,M,,Multi-ply,D
2,Marek Pivovarnik,O,Slovakia,126.5,,,,,,,,,,,250,267.5,280,280,,280,140,M,,Multi-ply,D
1,Johannes Impiö,O,Finland,140.1,,,,,,,,,,,250,,,250,,250,140+,M,,Multi-ply,D
