Place,Name,CyrillicName,BirthDate,Division,BodyweightKg,WeightClassKg,Sex,Squat1Kg,Squat2Kg,Squat3Kg,Best3SquatKg,Bench1Kg,Bench2Kg,Bench3Kg,Best3BenchKg,Deadlift1Kg,Deadlift2Kg,Deadlift3Kg,Best3DeadliftKg,TotalKg,Event,Equipment,Tested
1,Alla Pavlichenko,Алла Павличенко,1974-10-15,Amateur Masters,46.5,48,F,70,-75,-75,70,40,45,,45,75,80,85,85,200,SBD,Raw,Yes
1,Varvara Kukina,Варвара Кукина,1991-05-12,Amateur Juniors 20-23,51.3,52,F,-70,70,80,80,30,35,-40,35,70,80,-87.5,80,195,SBD,Raw,Yes
1,Yanna Miribyan,Янна Мирибян,1990-05-18,Amateur Open,62.4,67.5,F,80,90,95,95,45,50,,50,90,105,110,110,255,SBD,Raw,Yes
1,Andrey Raznopolov,Андрей Разнополов,1995-07-05,Amateur Teen,55,56,M,92.5,97.5,100,100,67.5,-72.5,-72.5,67.5,110,115,120,120,287.5,SBD,Raw,Yes
1,Sergey Kaverin,Сергей Каверин,1995-04-14,Amateur Teen,57.3,60,M,-80,85,90,90,65,70,-72.5,70,130,-140,140,140,300,SBD,Raw,Yes
1,Kirill Balychev,Кирилл Балычев,2001-06-10,Amateur Teen 13-15,65.2,67.5,M,80,87.5,95,95,50,-60,60,60,-100,100,120,120,275,SBD,Raw,Yes
1,Ruslan Rakhmanov,Руслан Рахманов,1995-04-14,Amateur Teen 18-19,64.7,67.5,M,142.5,-150,-150,142.5,-90,90,95,95,200,210,-215,210,447.5,SBD,Raw,Yes
1,Sergey Sidorov,Сергей Сидоров,1994-05-04,Amateur Juniors 20-23,67.4,67.5,M,145,155,160,160,100,105,-110,105,180,-187.5,-187.5,180,445,SBD,Raw,Yes
2,Yaroslav Moroz,Ярослав Мороз,1993-04-14,Amateur Juniors 20-23,64.9,67.5,M,90,-100,110,110,75,85,-90,85,130,140,150,150,345,SBD,Raw,Yes
1,Aleksey Boytsov,Алексей Бойцов,1988-12-25,Amateur Open,68.8,75,M,115,-125,125,125,100,110,-120,110,185,195,200,200,435,SBD,Raw,Yes
1,Vladimir Sibogatulin,Владимир Сибогатулин,1989-05-14,Amateur Open,77.9,82.5,M,150,-170,-170,150,110,115,-120,115,170,185,195,195,460,SBD,Raw,Yes
1,Fyodor Kvartalnyy,Фёдор Квартальный,1991-02-28,Amateur Juniors 20-23,84,90,M,100,110,120,120,80,85,90,90,140,160,-175,160,370,SBD,Raw,Yes
1,Sergey Aseev,Сергей Асеев,1980-06-12,Amateur Open,87,90,M,150,-160,-160,150,110,120,125,125,190,200,210,210,485,SBD,Raw,Yes
1,Vladimir Baushev,Владимир Баушев,1977-03-17,Amateur Open,98.6,100,M,180,200,-210,200,125,135,,135,180,200,-232.5,200,535,SBD,Raw,Yes
1,Vasiliy Shelestov,Василий Шелестов,1975-11-11,Amateur Open,98.6,100,M,205,210,215,215,175,180,185,185,230,,,230,630,SBD,Raw,Yes
DQ,Aleksandr Deryabin,Александр Дерябин,1997-11-03,Amateur Teen,103,110,M,-160,-160,-160,,,,,,,,,,,SBD,Raw,Yes
2,Valentin Trepshin,Валентин Трепшин,1986-06-10,Amateur Open,105.4,110,M,230,-240,,230,145,155,-162.5,155,220,230,235,235,620,SBD,Raw,Yes
1,Anton Bykov,Антон Быков,1975-05-01,Amateur Open,108.5,110,M,220,227.5,232.5,232.5,147.5,157.5,-162.5,157.5,227.5,242.5,-265,242.5,632.5,SBD,Raw,Yes
1,Maksim Nuyanzin,Максим Нуянзин,1996-10-10,Amateur Open,114.9,125,M,170,180,190,190,95,102.5,105,105,180,190,-192.5,190,485,SBD,Raw,Yes
1,Aleksandr Petrukhin,Александр Петрухин,1993-12-07,Amateur Juniors 20-23,74.7,75,M,185,195,-210,195,130,-140,140,140,180,195,-200,195,530,SBD,Single-ply,Yes
1,Valeriy Sukhov,Валерий Сухов,1988-10-29,Amateur Open,97.5,100,M,230,250,-260,250,135,145,160,160,200,210,-230,210,620,SBD,Single-ply,Yes
1,Dmitriy Razuvaev,Дмитрий Разуваев,1978-10-02,Amateur Open,103.5,110,M,250,260,270,270,-185,185,190,190,240,245,250,250,710,SBD,Single-ply,Yes
1,Anatoliy Elovich,Анатолий Елович,1993-11-20,Amateur Juniors 20-23,130.2,140,M,260,-270,-270,260,185,190,-195,190,235,250,260,260,710,SBD,Single-ply,Yes
1,Alla Pavlichenko,Алла Павличенко,1974-10-15,Amateur Masters,46.5,48,F,,,,,45,-47.5,-47.5,45,,,,,45,B,Raw,Yes
1,Marina Sitnikova,Марина Ситникова,1979-06-27,Amateur Open,47.4,48,F,,,,,45,-47.5,,45,,,,,45,B,Raw,Yes
1,Elena Shevyreva,Елена Шевырева,1974-03-20,Amateur Masters,51.5,52,F,,,,,40,45,-50,45,,,,,45,B,Raw,Yes
1,Svetlana Morozova,Светлана Морозова,1999-10-29,Amateur Teen 13-15,54.8,56,F,,,,,62.5,65,70,70,,,,,70,B,Raw,Yes
1,Marina Morozova,Марина Морозова,1978-09-10,Amateur Open,66.7,67.5,F,,,,,65,70,-75,70,,,,,70,B,Raw,Yes
DQ,Kristina Silkina,Кристина Силкина,1986-01-22,Amateur Open,81.5,82.5,F,,,,,-70,-70,-70,,,,,,,B,Raw,Yes
1,Valeriya Ryabenko,Валерия Рябенко,1990-11-18,Amateur Juniors 20-23,100.1,90+,F,,,,,60,-62.5,,60,,,,,60,B,Raw,Yes
1,Armen Abromyan,Армен Абромян,1986-10-31,Amateur Open,55.8,56,M,,,,,95,-102.5,-102.5,95,,,,,95,B,Raw,Yes
1,Roman Vitoshnev,Роман Витошнев,1999-04-13,Amateur Teen 13-15,56.7,60,M,,,,,92.5,97.5,-100,97.5,,,,,97.5,B,Raw,Yes
1,Mikhail Myagkov,Михаил Мягков,1993-06-21,Amateur Juniors 20-23,59.2,60,M,,,,,105,-112.5,112.5,112.5,,,,,112.5,B,Raw,Yes
1,Ivan Krapivin,Иван Крапивин,2000-04-14,Amateur Teen 13-15,64.3,67.5,M,,,,,60,-65,-65,60,,,,,60,B,Raw,Yes
1,Khayal Iskenderov,Хаял Искендеров,1995-05-23,Amateur Teen 18-19,63.3,67.5,M,,,,,100,107.5,110,110,,,,,110,B,Raw,Yes
1,Aleksandr Kuzmin,Александр Кузьмин,1984-12-21,Amateur Open,66.3,67.5,M,,,,,120,125,-130,125,,,,,125,B,Raw,Yes
2,Denis Bulanov,Денис Буланов,1989-10-26,Amateur Open,67.1,67.5,M,,,,,115,120,125,125,,,,,125,B,Raw,Yes
1,Vladislav Astafev,Владислав Астафьев,1994-11-11,Amateur Teen 18-19,74,75,M,,,,,107.5,117.5,-120,117.5,,,,,117.5,B,Raw,Yes
1,Vladimir Kuyantsev,Владимир Куянцев,1994-11-11,Amateur Teen 18-19,74.4,75,M,,,,,112.5,117.5,-122.5,117.5,,,,,117.5,B,Raw,Yes
2,Sergey Bukin,Сергей Букин,1993-09-24,Amateur Juniors 20-23,71.6,75,M,,,,,112.5,-117.5,-117.5,112.5,,,,,112.5,B,Raw,Yes
3,Daniel Sidorov,Даниэль Сидоров,1992-07-29,Amateur Juniors 20-23,74.1,75,M,,,,,100,110,-117.5,110,,,,,110,B,Raw,Yes
1,Andrey Smusev,Андрей Смусев,1989-11-06,Amateur Open,73.6,75,M,,,,,130,135,-140,135,,,,,135,B,Raw,Yes
2,Zelimkhan Dzhamaldinov,Зелимхан Джамалдинов,1990-03-17,Amateur Open,72.8,75,M,,,,,117.5,125,-135,125,,,,,125,B,Raw,Yes
3,Mikhail Novikov,Михаил Новиков,1987-03-17,Amateur Open,72.9,75,M,,,,,110,-120,-120,110,,,,,110,B,Raw,Yes
4,Vladimir Pavlyatenko,Владимир Павлятенко,1984-04-14,Amateur Open,73.5,75,M,,,,,105,-117.5,-117.5,105,,,,,105,B,Raw,Yes
1,Danil Uryvaev,Данил Урываев,1992-05-02,Amateur Juniors 20-23,77.8,82.5,M,,,,,-147.5,155,160,160,,,,,160,B,Raw,Yes
2,Ivan Gudkov,Иван Гудков,1992-03-16,Amateur Juniors 20-23,80.8,82.5,M,,,,,135,145,150,150,,,,,150,B,Raw,Yes
3,Sergey Gulyaev,Сергей Гуляев,1992-02-28,Amateur Juniors 20-23,80.9,82.5,M,,,,,145,150,-155,150,,,,,150,B,Raw,Yes
4,Sergey Galich,Сергей Галич,1991-06-03,Amateur Juniors 20-23,80.6,82.5,M,,,,,127.5,-130,130,130,,,,,130,B,Raw,Yes
1,Artem Kozlov,Артем Козлов,1982-04-14,Amateur Open,80.2,82.5,M,,,,,145,155,160,160,,,,,160,B,Raw,Yes
2,Valeriy Vasilev,Валерий Васильев,1985-07-22,Amateur Open,80.3,82.5,M,,,,,135,145,-147.5,145,,,,,145,B,Raw,Yes
3,Sergey Silkin,Сергей Силкин,1986-10-23,Amateur Open,82.5,82.5,M,,,,,140,-145,145,145,,,,,145,B,Raw,Yes
4,Andrey Shkarpetin,Андрей Шкарпетин,1990-04-28,Amateur Open,79.9,82.5,M,,,,,127.5,137.5,-142.5,137.5,,,,,137.5,B,Raw,Yes
5,Vitaliy Yudin,Виталий Юдин,1989-01-07,Amateur Open,80.8,82.5,M,,,,,-127.5,127.5,-142.5,127.5,,,,,127.5,B,Raw,Yes
DQ,Andrey Svidin,Андрей Свидин,1980-02-01,Amateur Open,81.2,82.5,M,,,,,-165,-165,-165,,,,,,,B,Raw,Yes
1,Sergey Kozyulin,Сергей Козюлин,1997-04-14,Amateur Teen,87.5,90,M,,,,,132.5,-142.5,-152.5,132.5,,,,,132.5,B,Raw,Yes
1,Ali Bazarov,Али Базаров,1995-07-08,Amateur Teen 18-19,89.1,90,M,,,,,-132.5,142.5,-152.5,142.5,,,,,142.5,B,Raw,Yes
1,Maksim Marilov,Максим Марилов,1992-10-12,Amateur Juniors 20-23,90,90,M,,,,,155,160,-165,160,,,,,160,B,Raw,Yes
2,Anton Demenskiy,Антон Деменский,1992-08-31,Amateur Juniors 20-23,88.3,90,M,,,,,-120,132.5,-135,132.5,,,,,132.5,B,Raw,Yes
3,Maksim Blokhin,Максим Блохин,1994-03-11,Amateur Juniors 20-23,84.7,90,M,,,,,125,-132.5,,125,,,,,125,B,Raw,Yes
1,Vladimir Borshchev,Владимир Борщев,1969-12-11,Amateur Masters,89.1,90,M,,,,,160,170,,170,,,,,170,B,Raw,Yes
2,Aleksey Frolov,Алексей Фролов,1969-05-28,Amateur Masters,88.9,90,M,,,,,145,152.5,-157.5,152.5,,,,,152.5,B,Raw,Yes
3,Nikolay Reshetov,Николай Решетов,1959-02-23,Amateur Masters,88.8,90,M,,,,,130,140,,140,,,,,140,B,Raw,Yes
1,Dmitriy Medvedev,Дмитрий Медведев,1975-06-27,Amateur Open,85.9,90,M,,,,,170,180,-190,180,,,,,180,B,Raw,Yes
2,Sergey Klimov,Сергей Климов,1988-10-31,Amateur Open,86.8,90,M,,,,,132.5,140,152.5,152.5,,,,,152.5,B,Raw,Yes
3,Aleksandr Lobodin,Александр Лободин,1982-10-24,Amateur Open,88.9,90,M,,,,,152.5,-155,-155,152.5,,,,,152.5,B,Raw,Yes
4,Aleksey Evseev,Алексей Евсеев,1983-06-20,Amateur Open,84.7,90,M,,,,,-147.5,147.5,-152.5,147.5,,,,,147.5,B,Raw,Yes
5,Dmitriy Gonzhal,Дмитрий Гонжал,1986-04-18,Amateur Open,88.7,90,M,,,,,130,140,-152.5,140,,,,,140,B,Raw,Yes
6,Aleksandr Bazylev,Александр Базылев,1982-07-27,Amateur Open,89.6,90,M,,,,,140,-152.5,-152.5,140,,,,,140,B,Raw,Yes
7,Denis Stepanov,Денис Степанов,1984-04-14,Amateur Open,90,90,M,,,,,135,140,-152.5,140,,,,,140,B,Raw,Yes
8,Vladimir Parshin,Владимир Паршин,1979-03-27,Amateur Open,85.4,90,M,,,,,132.5,135,137.5,137.5,,,,,137.5,B,Raw,Yes
DQ,Maksim Timofeev,Максим Тимофеев,1997-02-15,Amateur Teen 16-17,96.2,100,M,,,,,-115,-115,-115,,,,,,,B,Raw,Yes
1,Vladislav Fomenko,Владислав Фоменко,1996-03-05,Amateur Teen 18-19,96.1,100,M,,,,,105,-112.5,-112.5,105,,,,,105,B,Raw,Yes
1,Stanislav Vasilevskiy,Станислав Василевский,1994-03-14,Amateur Juniors 20-23,92.6,100,M,,,,,165,172.5,180,180,,,,,180,B,Raw,Yes
2,Andrey Bukharev,Андрей Бухарев,1991-09-27,Amateur Juniors 20-23,92.2,100,M,,,,,-140,140,-150,140,,,,,140,B,Raw,Yes
1,Vyacheslav Rudykh,Вячеслав Рудых,1972-12-28,Amateur Masters 40-44,97.3,100,M,,,,,162.5,167.5,170,170,,,,,170,B,Raw,Yes
1,Oleg Pichugin,Олег Пичугин,1966-04-02,Amateur Masters 45-49,91.7,100,M,,,,,100,-107.5,-107.5,100,,,,,100,B,Raw,Yes
1,Vasiliy Shelestov,Василий Шелестов,1975-11-11,Amateur Open,98.6,100,M,,,,,180,185,-187.5,185,,,,,185,B,Raw,Yes
2,Vladimir Petrykin,Владимир Петрыкин,1981-09-25,Amateur Open,98.8,100,M,,,,,170,180,-187.5,180,,,,,180,B,Raw,Yes
3,Aleksey Kiryanov,Алексей Кирьянов,1989-04-17,Amateur Open,97.8,100,M,,,,,162.5,167.5,-172.5,167.5,,,,,167.5,B,Raw,Yes
4,Viktor Kostyuk,Виктор Костюк,1990-04-14,Amateur Open,96.8,100,M,,,,,-162.5,162.5,-175,162.5,,,,,162.5,B,Raw,Yes
5,Aleksandr Bliznyuk,Александр Близнюк,1982-10-06,Amateur Open,96.6,100,M,,,,,-140,-140,140,140,,,,,140,B,Raw,Yes
6,Sergey Chenyakov,Сергей Ченяков,1982-07-25,Amateur Open,99.5,100,M,,,,,130,140,-150,140,,,,,140,B,Raw,Yes
DQ,Aleksey Popov,Алексей Попов,1978-08-13,Amateur Open,98.2,100,M,,,,,-140,-140,,,,,,,,B,Raw,Yes
DQ,Dmitriy Sukhov,Дмитрий Сухов,1975-06-09,Amateur Open,97.2,100,M,,,,,-157.5,-157.5,-157.5,,,,,,,B,Raw,Yes
1,Vladimir Reznikov,Владимир Резников,1967-09-23,Amateur Masters,106.7,110,M,,,,,175,180,-185,180,,,,,180,B,Raw,Yes
1,Stanislav Lyubimov,Станислав Любимов,1978-04-15,Amateur Open,108,110,M,,,,,152.5,160,162.5,162.5,,,,,162.5,B,Raw,Yes
2,Igor Shcherbakov,Игорь Щербаков,1984-04-16,Amateur Open,108.2,110,M,,,,,-140,147.5,-150,147.5,,,,,147.5,B,Raw,Yes
1,Vitaliy Guro,Виталий Гуро,1985-04-14,Amateur Open,123,125,M,,,,,177.5,-182.5,182.5,182.5,,,,,182.5,B,Raw,Yes
1,Vladimir Strizhak,Владимир Стрижак,1995-08-31,Amateur Teen,59,60,M,,,,,112.5,-120,-120,112.5,,,,,112.5,B,Single-ply,Yes
1,Nikolay Reshetov,Николай Решетов,1959-02-23,Amateur Open,88.4,90,M,,,,,160,170,180,180,,,,,180,B,Single-ply,Yes
1,Nikolay Reshetov,Николай Решетов,1959-02-23,Amateur Masters 55-59,88.4,90,M,,,,,160,170,180,180,,,,,180,B,Single-ply,Yes
1,Nikolay Reshetov,Николай Решетов,1959-02-23,Amateur Masters,88.8,90,M,,,,,160,170,180,180,,,,,180,B,Multi-ply,Yes
DQ,Marat Sultanov,Марат Султанов,1984-09-07,Amateur Open,86.4,90,M,,,,,-180,,,,,,,,,B,Multi-ply,Yes
DQ,Andrey Makeev,Андрей Макеев,1985-12-28,Amateur Open,96.2,100,M,,,,,-205,-205,,,,,,,,B,Multi-ply,Yes
DQ,Artem Sedov,Артем Седов,1979-03-18,Amateur Open,123.6,125,M,,,,,-250,-250,-260,,,,,,,B,Multi-ply,Yes
1,Violetta Filimonova,Виолетта Филимонова,1991-01-08,Amateur Juniors 20-23,48,48,F,,,,,,,,,105,110,-115,110,110,D,Raw,Yes
1,Elena Enina,Елена Енина,1989-05-10,Amateur Open,47.1,48,F,,,,,,,,,100,105,110,110,110,D,Raw,Yes
1,Arina Ukhina,Арина Ухина,2001-05-11,Amateur Teen,55.7,56,F,,,,,,,,,87.5,92.5,-95,92.5,92.5,D,Raw,Yes
1,Anna Gaydamakina,Анна Гайдамакина,1978-08-23,Amateur Open,55.6,56,F,,,,,,,,,122.5,130,135,135,135,D,Raw,Yes
1,Yuliya Morozova,Юлия Морозова,1994-03-04,Amateur Juniors 20-23,58,60,F,,,,,,,,,120,-125,127.5,127.5,127.5,D,Raw,Yes
1,Marina Morozova,Марина Морозова,1978-09-10,Amateur Open,66.7,67.5,F,,,,,,,,,135,140,145,145,145,D,Raw,Yes
2,Olga Protopopova,Ольга Протопопова,1986-05-21,Amateur Open,62.2,67.5,F,,,,,,,,,70,105,110,110,110,D,Raw,Yes
1,Segey Kaverin,Сегей Каверин,1995-09-05,Amateur Teen,57.3,60,M,,,,,,,,,130,140,-150,140,140,D,Raw,Yes
1,Valeriy Donskov,Валерий Донсков,1997-04-14,Amateur Teen 16-17,64.8,67.5,M,,,,,,,,,-140,140,145,145,145,D,Raw,Yes
1,Sergey Skalazubov,Сергей Скалазубов,1996-05-27,Amateur Teen 18-19,66.8,67.5,M,,,,,,,,,200,212.5,220,220,220,D,Raw,Yes
1,Denis Bulanov,Денис Буланов,1989-10-26,Amateur Open,67.1,67.5,M,,,,,,,,,190,195,-200,195,195,D,Raw,Yes
1,Artem Boytsov,Артем Бойцов,1992-06-18,Amateur Juniors 20-23,74.1,75,M,,,,,,,,,185,195,205,205,205,D,Raw,Yes
2,Vsevolod Ryabukh,Всеволод Рябух,1998-07-14,Amateur Teen 16-17,73.5,75,M,,,,,,,,,160,-177.5,-177.5,160,160,D,Raw,Yes
1,Artem Kuznetsov,Артем Кузнецов,1991-01-08,Amateur Juniors 20-23,74.3,75,M,,,,,,,,,145,150,155,155,155,D,Raw,Yes
1,Sergey Nikitin,Сергей Никитин,1964-03-28,Amateur Masters,71.6,75,M,,,,,,,,,190,-200,202.5,202.5,202.5,D,Raw,Yes
2,Viktor Kotelnikov,Виктор Котельников,1964-10-01,Amateur Masters,74,75,M,,,,,,,,,177.5,185,-192.5,185,185,D,Raw,Yes
1,Aleksey Boytsov,Алексей Бойцов,1988-12-25,Amateur Open,68.8,75,M,,,,,,,,,185,195,202.5,202.5,202.5,D,Raw,Yes
2,Dmitriy Dogadin,Дмитрий Догадин,1986-04-14,Amateur Open,71.7,75,M,,,,,,,,,192.5,202.5,-210,202.5,202.5,D,Raw,Yes
3,Mikhail Novikov,Михаил Новиков,1987-03-17,Amateur Open,72.9,75,M,,,,,,,,,165,177.5,-180,177.5,177.5,D,Raw,Yes
1,Guseyn Ustaaliev,Гусейн Устаалиев,1994-07-17,Amateur Juniors 20-23,81.6,82.5,M,,,,,,,,,205,,215,215,215,D,Raw,Yes
2,Vitaliy Trigubenko,Виталий Тригубенко,1992-08-02,Amateur Juniors 20-23,81.2,82.5,M,,,,,,,,,-185,-185,185,185,185,D,Raw,Yes
3,Nikolay Kislov,Николай Кислов,1994-05-31,Amateur Juniors 20-23,77.2,82.5,M,,,,,,,,,130,145,-155,145,145,D,Raw,Yes
1,Vladimir Sibogatulin,Владимир Сибогатулин,1989-05-14,Amateur Open,77.9,82.5,M,,,,,,,,,170,185,200,200,200,D,Raw,Yes
1,Ilya Laptev,Илья Лаптев,1998-12-03,Amateur Teen 13-15,88.5,90,M,,,,,,,,,150,160,170,170,170,D,Raw,Yes
1,Sergey Balychev,Сергей Балычев,1980-04-28,Amateur Open,88.4,90,M,,,,,,,,,222.5,-230,230,230,230,D,Raw,Yes
2,Vadim Barash,Вадим Бараш,1979-09-12,Amateur Open,89.7,90,M,,,,,,,,,-222.5,222.5,230,230,230,D,Raw,Yes
3,Aleksandr Shchepetnov,Александр Щепетнов,1978-04-08,Amateur Open,88.5,90,M,,,,,,,,,212.5,222.5,-227.5,222.5,222.5,D,Raw,Yes
4,Sergey Aseev,Сергей Асеев,1980-06-12,Amateur Open,87,90,M,,,,,,,,,210,-217.5,,210,210,D,Raw,Yes
5,Denis Stepanov,Денис Степанов,1984-10-26,Amateur Open,90,90,M,,,,,,,,,195,202.5,-222.5,202.5,202.5,D,Raw,Yes
6,Aleksey Shusharin,Алексей Шушарин,1980-06-14,Amateur Open,87.9,90,M,,,,,,,,,-180,-180,180,180,180,D,Raw,Yes
1,Maksim Timofeev,Максим Тимофеев,1997-02-15,Amateur Teen,96.2,100,M,,,,,,,,,-140,140,150,150,150,D,Raw,Yes
1,Oleg Pichugin,Олег Пичугин,1966-04-02,Amateur Masters,91.7,100,M,,,,,,,,,-170,170,185,185,185,D,Raw,Yes
1,Dmitriy Myskov,Дмитрий Мыськов,1976-11-05,Amateur Open,98.9,100,M,,,,,,,,,-240,240,260,260,260,D,Raw,Yes
2,Andrey Makeev,Андрей Макеев,1985-12-28,Amateur Open,96.2,100,M,,,,,,,,,230,245,-250,245,245,D,Raw,Yes
1,Sergey Savenko,Сергей Савенко,1990-06-29,Amateur Open,108.2,110,M,,,,,,,,,240,250,-255,250,250,D,Raw,Yes
2,Arutyun Manukyan,Арутюн Манукян,1984-04-30,Amateur Open,108.3,110,M,,,,,,,,,230,240,-252.5,240,240,D,Raw,Yes
1,Diana Chitana,Диана Читана,1996-11-01,Pro Teen,54,56,F,75,77.5,80,80,-37.5,40,-45,40,-70,70,-80,70,190,SBD,Raw,No
1,Marina Vishnevskaya,Марина Вишневская,1985-10-26,Pro Open,67.3,67.5,F,130,140,145,145,75,77.5,-80,77.5,160,-170,,160,382.5,SBD,Raw,No
1,Diana Sarkisyan,Диана Саркисян,1995-06-10,Pro Teen,73.3,75,F,-85,97.5,-107.5,97.5,45,57.5,-62.5,57.5,80,90,100,100,255,SBD,Raw,No
1,Elvira Efendieva,Эльвира Эфендиева,1970-03-20,Pro Open,69.4,75,F,100,107.5,-115,107.5,67.6,72.5,80,80,100,115,125,125,312.5,SBD,Raw,No
1,Segey Koshelev,Сегей Кошелев,1998-01-28,Pro Teen 16-17,75,75,M,120,125,130,130,95,-100,-100,95,135,140,152.5,152.5,377.5,SBD,Raw,No
1,Ivan Rogozhkin,Иван Рогожкин,1995-04-14,Pro Teen 18-19,73.3,75,M,135,145,155,155,95,105,-110,105,160,172.5,185,185,445,SBD,Raw,No
1,Sergey Fedorenko,Сергей Федоренко,1990-02-22,Pro Open,68.1,75,M,165,175,185,185,120,125,127.5,127.5,190,205,-210,205,517.5,SBD,Raw,No
1,Aleksey Duskaliev,Алексей Дускалиев,1996-01-21,Pro Teen,85.1,90,M,140,147.5,155,155,100,110,-117.5,110,150,-160,160,160,425,SBD,Raw,No
1,Sergey Afanasev,Сергей Афанасьев,1990-05-02,Pro Open,85.1,90,M,190,200,-210,200,-140,140,145,145,-240,240,245,245,590,SBD,Raw,No
2,Semen Vachugov,Семен Вачугов,1987-09-29,Pro Open,88.5,90,M,190,200,210,210,120,130,-135,130,230,240,250,250,590,SBD,Raw,No
3,Nikina Korshunov,Никина Коршунов,1989-12-10,Pro Open,86.7,90,M,140,150,-160,150,107.5,110,-115,110,190,-200,200,200,460,SBD,Raw,No
1,Yuriy Ekamasov,Юрий Екамасов,1997-07-08,Pro Teen 16-17,95.8,100,M,220,-240,-240,220,120,135,-150,135,220,-245,-260,220,575,SBD,Raw,No
1,Andrey Tumanov,Андрей Туманов,1995-04-02,Pro Teen 18-19,100,100,M,190,200,-207.5,200,105,112.5,-122.5,112.5,195,215,-222.5,215,527.5,SBD,Raw,No
1,Maksim Sleptsov,Максим Слепцов,1977-06-18,Pro Open,95.1,100,M,205,215,220,220,165,170,175,175,245,255,265,265,660,SBD,Raw,No
2,Denis Chekalov,Денис Чекалов,1987-10-28,Pro Open,99.4,100,M,180,190,200,200,-150,155,160,160,240,250,-255,250,610,SBD,Raw,No
DQ,Valeriy Polosminnikov,Валерий Полосминников,1975-08-12,Pro Open,98,100,M,-185,-195,-195,,,,,,,,,,,SBD,Raw,No
1,Grigoriy Bebenin,Григорий Бебенин,1993-04-02,Pro Juniors 20-23,109,110,M,-280,280,,280,190,200,-210,200,280,-290,290,290,770,SBD,Raw,No
1,Aleksey Kastenko,Алексей Кастенко,1982-10-15,Pro Open,108.7,110,M,200,215,-220,215,130,-137.5,137.5,137.5,210,-225,225,225,577.5,SBD,Raw,No
1,Stanislav Shvetsov,Станислав Швецов,1988-02-08,Pro Open,122.4,125,M,310,325,340,340,230,240,250,250,320,340,-350,340,930,SBD,Raw,No
2,Andrey Kvochkin,Андрей Квочкин,1991-03-21,Pro Open,122.5,125,M,290,305,-310,305,205,215,225,225,320,335,-345,335,865,SBD,Raw,No
DQ,Kamil Kuzakhmetov,Камиль Кузахметов,1995-05-04,Pro Teen,81.5,82.5,M,-240,-250,-250,,,,,,,,,,,SBD,Single-ply,No
1,Ilya Kosarev,Илья Косарев,1997-02-21,Pro Teen,78.4,82.5,M,150,160,180,180,90,-100,-100,90,-140,150,170,170,440,SBD,Single-ply,No
1,Viktor Morozov,Виктор Морозов,1981-04-14,Pro Open,107.1,110,M,-250,-250,250,250,170,-185,190,190,230,-245,-245,230,670,SBD,Single-ply,No
1,Aleksandr Malofeev,Александр Малофеев,1981-06-06,Pro Open,116.3,125,M,260,-280,280,280,-200,-220,220,220,-250,250,280,280,780,SBD,Single-ply,No
1,Aleksandr Dambinov,Александр Дамбинов,1936-03-12,Pro Masters,66.2,67.5,M,,,,,70,-75,-75,70,,,,,70,B,Raw,No
1,Artur Abdyushev,Артур Абдюшев,1993-02-28,Pro Juniors 20-23,74.9,75,M,,,,,165,170,-175,170,,,,,170,B,Raw,No
1,Vladislav Khukhunin,Владислав Хухунин,1969-06-27,Pro Masters,81,82.5,M,,,,,120,130,-140,130,,,,,130,B,Raw,No
DQ,Aleksandr Serafimov,Александр Серафимов,1988-06-16,Pro Open,76.7,82.5,M,,,,,-175,-175,-175,,,,,,,B,Raw,No
1,Aleksandr Isadchenko,Александр Исадченко,1985-05-19,Pro Open,81.9,82.5,M,,,,,165,170,,170,,,,,170,B,Raw,No
2,Roman Odnobokov,Роман Однобоков,1980-02-18,Pro Open,80.9,82.5,M,,,,,160,-170,-170,160,,,,,160,B,Raw,No
1,Anatoliy Chuvarev,Анатолий Чуварев,1995-05-29,Pro Teen,87.3,90,M,,,,,115,-120,-125,115,,,,,115,B,Raw,No
DQ,Grigoriy Kostin,Григорий Костин,1994-06-28,Pro Juniors 20-23,88.9,90,M,,,,,-145,-145,,,,,,,,B,Raw,No
1,Maksim Orlov,Максим Орлов,1981-12-21,Pro Open,87.5,90,M,,,,,170,-180,,170,,,,,170,B,Raw,No
2,Andrey Udalov,Андрей Удалов,1979-01-05,Pro Open,88.2,90,M,,,,,120,140,,140,,,,,140,B,Raw,No
1,Ruslan Yusifov,Руслан Юсифов,1995-03-06,Pro Teen,92.8,100,M,,,,,-145,-155,160,160,,,,,160,B,Raw,No
1,Vadim Yashin,Вадим Яшин,1969-04-22,Pro Masters,94.4,100,M,,,,,155,165,,165,,,,,165,B,Raw,No
1,Evgeniy Shatykov,Евгений Шатыков,1978-12-18,Pro Open,96.5,100,M,,,,,170,-190,-200,170,,,,,170,B,Raw,No
2,Ruslan Kornienko,Руслан Корниенко,1981-03-09,Pro Open,96,100,M,,,,,-180,-190,190,190,,,,,190,B,Raw,No
3,Andrey Zolotukhin,Андрей Золотухин,1985-02-18,Pro Open,98.7,100,M,,,,,-180,180,-190,180,,,,,180,B,Raw,No
4,Pavel Zaborskiy,Павел Заборский,1979-04-14,Pro Open,99.1,100,M,,,,,165,-175,180,180,,,,,180,B,Raw,No
DQ,Dmitriy Ovsyannikov,Дмитрий Овсянников,1984-08-26,Pro Open,99,100,M,,,,,-175,-185,-185,,,,,,,B,Raw,No
1,Sergey Krapivin,Сергей Крапивин,1973-04-14,Pro Masters,107.9,110,M,,,,,197.5,-210,-210,197.5,,,,,197.5,B,Raw,No
2,Evgeniy Abrosimov,Евгений Абросимов,1966-04-14,Pro Masters,105.4,110,M,,,,,165,175,-180,175,,,,,175,B,Raw,No
1,Evgeniy Belozyor,Евгений Белозёр,1979-03-19,Pro Open,103.6,110,M,,,,,200,210,-215,210,,,,,210,B,Raw,No
1,Roman Antonov,Роман Антонов,1994-08-24,Pro Juniors 20-23,117.5,125,M,,,,,170,180,-190,180,,,,,180,B,Raw,No
1,Adam Kotiev,Адам Котиев,1971-07-01,Pro Masters,116.3,125,M,,,,,190,-200,-200,190,,,,,190,B,Raw,No
1,Aleksandr Dolgov,Александр Долгов,1974-04-14,Pro Open,116.1,125,M,,,,,200,210,220,220,,,,,220,B,Raw,No
2,Evgeniy Danilov,Евгений Данилов,1988-05-07,Pro Open,117.1,125,M,,,,,205,210,-220,210,,,,,210,B,Raw,No
1,Aleksey Efremov,Алексей Ефремов,1983-01-24,Pro Open,127.3,140,M,,,,,200,215,-220,215,,,,,215,B,Raw,No
1,Igor Pritulnyak,Игорь Притульняк,1994-06-26,Pro Juniors 20-23,85.9,90,M,,,,,170,-185,-185,170,,,,,170,B,Single-ply,No
DQ,Aleksandr Konstantinov,Александр Константинов,1988-09-11,Pro Open,98.9,100,M,,,,,-300,-300,-300,,,,,,,B,Single-ply,No
1,Aleksey Kochurov,Алексей Кочуров,1982-01-19,Pro Open,109.1,110,M,,,,,232.5,240,-250,240,,,,,240,B,Single-ply,No
1,Aleksandr Zavyalov,Александр Завьялов,1979-09-22,Pro Open,104.1,110,M,,,,,200,210,-230,210,,,,,210,B,Multi-ply,No
DQ,Aleksey Tarasov,Алексей Тарасов,1976-03-21,Pro Open,123.5,125,M,,,,,-280,,,,,,,,,B,Multi-ply,No
1,Sergey Golyush,Сергей Голюш,1982-09-01,Pro Open,133.8,140,M,,,,,-265,-265,265,265,,,,,265,B,Multi-ply,No
1,Sergey Golyush,Сергей Голюш,1982-09-01,Pro Open,133.8,140,M,,,,,-265,-265,265,265,,,,,265,B,Multi-ply,No
1,Aleksandr Dombinov,Александр Домбинов,1936-03-12,Pro Masters,66.2,67.5,M,,,,,,,,,155,160,,160,160,D,Raw,No
1,Vladislav Khukhunin,Владислав Хухунин,1969-06-27,Pro Masters,81,82.5,M,,,,,,,,,180,190,-200,190,190,D,Raw,No
1,Sergey Afanasev,Сергей Афанасьев,1990-05-02,Pro Open,85.1,90,M,,,,,,,,,230,,,230,230,D,Raw,No
1,Igor Sergeev,Игорь Сергеев,1995-06-17,Pro Teen 18-19,96.9,100,M,,,,,,,,,240,250,255,255,255,D,Raw,No
1,Aleksey Kiselyov,Алексей Киселёв,1974-04-27,Pro Masters,99.4,100,M,,,,,,,,,250,260,-270,260,260,D,Raw,No
1,Aleksey Kiselyov,Алексей Киселёв,1974-04-27,Pro Open,99.4,100,M,,,,,,,,,250,260,-270,260,260,D,Raw,No
1,Aleksandr Amelchenko,Александр Амельченко,1995-05-19,Pro Teen 18-19,108.2,110,M,,,,,,,,,285,-290,-290,285,285,D,Raw,No
1,Aleksandr Malofeev,Александр Малофеев,1981-06-06,Pro Open,116.3,125,M,,,,,,,,,230,245,260,260,260,D,Raw,No
1,Sergey Golyush,Сергей Голюш,1972-09-01,Pro Open,133.8,140,M,,,,,,,,,250,265,-275,265,265,D,Raw,No
1,Konstantin Lozychenko,Константин Лозыченко,1972-01-11,Pro Open,98.1,100,M,,,,,,,,,230,240,-250,240,240,D,Single-ply,No
1,Igor Nastynov,Игорь Настынов,1961-03-14,Pro Open,138.5,140,M,,,,,,,,,260,285,,285,285,D,Single-ply,No
